﻿"Алейский","Первомайский","ФАП",,,
"Алейский","Краснодубровский","ФАП",,,
"Алейский","Октябрьский","ФАП",,,
"Алейский","Приятельский","ФАП",,,
"Алейский","Уржум","ФАП",,,
"Алейский","Малахово","ФАП",,,
"Алейский","Ветелки","ФАП",,,
"Алейский","Малиновка","ФАП",,,
"Алтайский","Пролетарка","ФАП 1969 муниципальная",,,
"Алтайский","Комар","ФАП",,,
"Алтайский","Белое","ФАП 1961 муниципальная",,,
"Алтайский","Катунь","ФАП 1985 муниципальная",,,
"Алтайский","Верх-Ая","ФАП 1963 муниципальная",,,
"Баевский","Чуманка","ДХПП",,,
"Баевский","Покровка","ФАП",,,
"Баевский","Сафроново","ФАП 1955 муниципальная",,,
"Баевский","Паклино","ФАП 1990 муниципальная",,,
"Баевский","Нижнепайва","ФАП 1960 муниципальная",,,
"Барнаул","Железнодорожная Казарма 242 км",,,,
"Барнаул","Мохнатушка",,,,
"Бийск","Жаворонково",,,,
"Бийский","Студенческий","ФАП 1974 муниципальная",,,
"Бийский","Бехтемир-Аникино","ФАП 1986 муниципальная",,,
"Бийский","Березовая Горка","ФАП 1986 муниципальная",,,
"Бийский","Образцовка","ФАП",,,
,,"1984 муниципальная",,,
"Бийский","Ягодный","ФАП",,,
,,"1986 муниципальная",,,
"Бийский","Промышленный",,,,
"Бийский","Мальцева Курья","ФАП 1986 муниципальная",,,
"Бийский","Ключи","ФАП 1990 муниципальная",,,
"Бийский","Заозерный","ФАП 1990 муниципальная",,,
"Бийский","Полеводка","ФАП 2006 муниципальная",,,
"Благовещенский","Михайловка","ФАП 1982 муниципальная",,,
"Благовещенский","Хорошавка","ФАП 1954 муниципальная",,,
"Благовещенский","Глядень-4",,,,
"Благовещенский","Новотюменцево","ФАП 1985 муниципальная",,,
"Благовещенский","Глядень-2",,,,
"Благовещенский","Тельманский","ФАП 1964 муниципальная",,,
"Бурлинский","Чернавка","ФАП 1980",,,
"Бурлинский","Новоалексеевка","ФАП 1975",,,
"Бурлинский","Первомайское","ФАП 1972",,,
"Бурлинский","Петровка","ФАП 1960",,,
"Бурлинский","Цветополь","ФАП 1968",,,
"Бурлинский","Асямовка","ФАП 1980",,,
"Бурлинский","Притыка","ФАП 1991",,,
"Бурлинский","Гусиная Ляга","ФАП 1967",,,
"Бурлинский","Новоандреевка","ФАП 1961 муниципальная",,,
"Быстроистокский","Усть-Ануй","ФАП 1958 муниципальная",,,
"Волчихинский","Плодосовхоз","ФАП 1985 муниципальная",,,
"Егорьевский","Песчаный Борок","ФАП 1998 муниципальная",,,
"Егорьевский","Борисовка","ФАП 1987 муниципальная",,,
"Егорьевский","Мирный","ФАП 1973 муниципальная",,,
"Ельцовский","Последниково","ФАП 1989 краевая",,,
"Ельцовский","Верх-Неня","ФАП",,,
,,"1989 краевая",,,
"Завьяловский","Овечкино","ФАП",,,
"Завьяловский","Новокуликовский","ФАП 1992 муниципальная",,,
"Завьяловский","Краснодубровский","ФАП 1966 муниципальная",,,
"Завьяловский","Александровка","ФАП 1991 муниципальная",,,
"Залесовский","Малый Калтай","ФАП 1981 муниципальная",,,
"Залесовский","Пролетарская Крепость","ДХПП",,,
"Залесовский","Видоново","ФАП 1950 муниципальная",,,
"Залесовский","Гуниха","ФАП 1981 муниципальная",,,
"Залесовский","Талица","ФАП 2014 краевая",,,
"Залесовский","Заплывино","ФАП 1986 муниципальная",,,
"Залесовский","Муравей","ФАП 1981 муниципальная",,,
"Заринский","Казанцево","ДХПП",,,
"Заринский","Старокопылово","ФАП 1963 муниципальная",,,
"Заринский","Новокрасилово","ФАП 1989 муниципальная",,,
"Заринский","Голубцово","ФАП 1987 муниципальная",,,
"Заринский","Кокорское","ФАП 1986 муниципальная",,,
"Заринский","Афонино","ФАП 1987 муниципальная",,,
"Заринский","Мостовой","ДХПП",,,
"Заринский","Каменушка","ФАП 1996 муниципальная",,,
"Заринский","Староглушинка","ФАП 1989 муниципальная",,,
"Заринский","Смирново","ФАП 1990 муниципальная",,,
"Заринский","Батунный",,,,
"Змеиногорский","Утка","ФАП 1980 муниципальная",,,
"Змеиногорский","Локоток","ФАП 1957 муниципальная",,,
"Змеиногорский","Новокузнецовка","ФАП 1976 муниципальная",,,
"Змеиногорский","Тушканиха","ДХПП",,,
"Змеиногорский","Отрада","ФАП",,,
"Змеиногорский","Лазурка","ФАП 1954 муниципальная",,,
"Змеиногорский","Березовка","ФАП 1983",,,
"Змеиногорский","Воронеж","ФАП 1966 муниципальная",,,
"Змеиногорский","Никольск","ФАП 1970 муниципальная",,,
"Зональный","Парижская Коммуна","ФАП 1970 муниципальная",,,
"Зональный","Новый Быт","ФАП 1953",,,
"Зональный","Урожайный","ФАП 1956",,,
"Зональный","Буланиха",,,,"СВА"
"Зональный","Свекловичный",,,,
"Зональный","Восход","ФАП 1968",,,
"Калманский","Логовской","ДХПП",,,
"Калманский","Прудской","ДХПП",,,
"Калманский","Александровка","ДХПП",,,
"Калманский","Новый","ДХПП",,,
"Калманский","Панфилово","ФАП",,,
"Каменский","Зеленая Дубрава","ФАП 1988",,,
"Каменский","Раздольный","ФАП",,,
"Каменский","Ветренно-Телеутское","ФАП 1998 муниципальная",,,
"Каменский","Обское","ФАП 1965",,,
"Ключевский","Красный Яр","ФАП",,,
"Ключевский","Нововознесенка","ФАП 1980",,,
"Ключевский","Платовка","ФАП 1982 муниципальная",,,
"Ключевский","Марковка","ФАП 1979",,,
"Косихинский","Логовой","ФАП 1976 муниципальная",,,
"Косихинский","Филатово","ФАП 1989",,,
"Косихинский","Верх-Бобровка","ФАП 1982 муниципальная",,,
"Косихинский","Баюново","ФАП 1952",,,
"Косихинский","Восход","ФАП 1987 муниципальная",,,
"Косихинский","Овчинниково","ФАП 1985 муниципальная",,,
"Косихинский","Лучевое","ФАП 1991",,,
"Косихинский","Романово","ФАП 1980",,,
"Косихинский","Пустынь","ФАП 1989",,,
"Косихинский","Озеро-Красилово","ФАП 1961 муниципальная",,,
"Красногорский","Горный","ФАП 1977",,,
"Красногорский","Кажа","ФАП 1996 муниципальная",,,
"Красногорский","Ужлеп",,,,
"Красногорский","Долина Свободы","ФАП 1984",,,
"Красногорский","Мост Иша","ДХПП",,,
"Красногорский","Сосновка","ФАП 1967",,,
"Красногорский","Макарьевское","ФАП 1969 муниципальная",,,
"Красногорский","Тайна","ФАП 1975",,,
"Красногорский","Новая Суртайка","ФАП 1973 муниципальная",,,
"Красногорский","Мануильское","ФАП 1965",,,
"Красногорский","Им Фрунзе","ФАП 1961 муниципальная",,,
"Красногорский","Лебяжье","ФАП 1969 муниципальная",,,
"Краснощёковский","Карпово Первое","ФАП 1973 муниципальная",,,
"Краснощёковский","Золотушка","ФАП 1958",,,
"Краснощёковский","Чарышский","ФАП 1991",,,
"Краснощёковский","Засурье",,,,
"Краснощёковский","Усть-Чагырка","ФАП 1931",,,
"Краснощёковский","Усть-Белое","ФАП 1981 муниципальная",,,
"Крутихинский","Караси","ФАП 1980",,,
"Крутихинский","Радостный","ФАП 1950 муниципальная",,,
"Крутихинский","Масляха","ФАП 1956",,,
"Кулундинский","Воскресеновка","ДХПП",,,
"Кулундинский","Попасное","ФАП 1987 муниципальная",,,
"Кулундинский","Сергеевка","ФАП 1992 муниципальная",,,
"Кулундинский","Екатериновка","ФАП 1989",,,
"Кулундинский","Троицк","ФАП 1980",,,
"Кулундинский","Городецкий","ФАП 1980",,,
"Кулундинский","Кротовка",,,,
"Кулундинский","Воздвиженка","ФАП 1978",,,
"Кулундинский","Виноградовка","ФАП 1970 муниципальная",,,
"Кулундинский","Кирей","ФАП 1990 муниципальная",,,
"Кулундинский","Смирненькое","ФАП 1982 муниципальная",,,
"Курьинский","Подхоз",,,,
"Курьинский","им 8 Марта","ФАП 2012",,,
"Курьинский","Горновка","ФАП 1969 муниципальная",,,
"Курьинский","Ручьёво","ФАП 1991",,,
"Курьинский","Казанцево","ФАП 1969 муниципальная",,,
"Кытмановский","Улус-Тараба","ФАП 1994",,,
"Кытмановский","Целинный","ФАП 1960",,,
"Кытмановский","Курья","ФАП 1987 муниципальная",,,
"Кытмановский","Беспалово","ФАП 1950 муниципальная",,,
"Кытмановский","Каменка","ФАП 1960",,,
"Кытмановский","Новоозерное","ФАП 1950 муниципальная",,,
"Кытмановский","Петрушиха","ФАП 1987 муниципальная",,,
"Кытмановский","Отрадное","ФАП 1976 муниципальная",,,
"Кытмановский","Заречное","ФАП 1984",,,
"Кытмановский","Черкасово","ФАП 1987 муниципальная",,,
"Кытмановский","Кытманушка",,,,
"Локтевский","Павловка","ДХПП",,,
"Локтевский","Ермошиха","ДХПП",,,
"Локтевский","Новомихайловка","ФАП",,,
"Михайловский","Неводное","ФАП 1963 муниципальная",,,
"Немецкий национальный","Лесное","ФАП 1992 муниципальная",,,
"Немецкий национальный","Дворское","ДХПП",,,
"Немецкий национальный","Александровка","ФАП 1966 муниципальная",,,
"Немецкий национальный","Красноармейский","ФАП 1969 муниципальная",,,
"Новичихинский","Мамонтово","ФАП 1978",,,
"Новичихинский","Красноярка","ФАП 1961 муниципальная",,,
"Новичихинский","Ильинский","ФАП 1962",,,
"Новичихинский","Веселая Дубрава","ФАП 1963 муниципальная",,,
"Павловский","им Мамонтова","ДХПП",,,
"Павловский","Солоновка",,,,
"Павловский","Красный Май",,,,
"Павловский","Озёрный","ДХПП",,,
"Павловский","Молодежный","ФАП",,,
"Павловский","Арбузовка",,,,
"Павловский","Красная Дубрава",,,,
"Павловский","Жуковка","ДХПП",,,
"Панкрушихинский","Красноармейский","ФАП 1975",,,
"Панкрушихинский","Конёво","ФАП 1985 муниципальная",,,
"Панкрушихинский","Ленский","ФАП 1974 муниципальная",,,
"Панкрушихинский","Береговое","ФАП 1989",,,
"Первомайский","Таловка","ФАП",,,
"Первомайский","Новокопылово","ФАП 1966 муниципальная",,,
"Первомайский","Новочесноковка","ФАП 1950 муниципальная",,,
"Первомайский","Бешенцево","ФАП 1960",,,
"Первомайский","Волга","ФАП 1989",,,
"Первомайский","Старокрайчиково","ФАП 1988",,,
"Первомайский","Нижняя Петровка","ФАП 1987 муниципальная",,,
"Первомайский","Покровка",,,,
"Первомайский","Лебяжье","ФАП 1974 муниципальная",,,
"Первомайский","Голышево","ФАП 1965",,,
"Первомайский","Кислуха",,,,
"Петропавловский","Красные Орлы","ФАП 1987 муниципальная",,,
"Петропавловский","им Калинина","ФАП 1965",,,
"Поспелихинский","Поломошное","ФАП 1979",,,
"Ребрихинский","Орел","ФАП 1978",,,
"Ребрихинский","Ключевка","ФАП 1960",,,
"Ребрихинский","Верх-Боровлянка","ФАП 1958",,,
"Ребрихинский","Куликово","ФАП",,,
"Родинский","Вячеславка","ФАП 1988",,,
"Родинский","Зеленая Дубрава","ФАП",,,
"Родинский","Разумовка","ФАП 1974 муниципальная",,,
"Романовский","Мормыши","ФАП 1984",,,
"Романовский","Бурановка","ФАП 1990 муниципальная",,,
"Романовский","Казанцево","ФАП 1980",,,
"Романовский","Рассвет","ФАП 1978",,,
"Рубцовский","Шмидта",,,,
"Рубцовский","Новоматвеевка","ДХПП",,,
"Рубцовский","Троинка","ФАП 1987 муниципальная",,,
"Рубцовский","Назаровка","ДХПП",,,
"Рубцовский","Вымпел",,,,
"Рубцовский","им Калинина","ФАП 1980",,,
"Рубцовский","Потеряевка","ФАП 1987 муниципальная",,,
"Рубцовский","Бугры","ДХПП",,,
"Рубцовский","6 Конгресса Коминтерна","ДХПП",,,
"Рубцовский","Вторые Коростели","ФАП",,,
"Рубцовский","Захарово","ФАП 1987 муниципальная",,,
"Рубцовский","Зерно","ФАП 1979",,,
"Рубцовский","Зарница","ФАП 1985 муниципальная",,,
"Рубцовский","Калиновка","ФАП. 1980",,,
"Славгород","Павловка","ФАП 1990 муниципальная",,,
"Славгород","Пановка","ФАП 1967",,,
"Славгород","Райгород","ФАП 1986 муниципальная",,,
"Славгород","Максимовка","ФАП 1960",,,
"Славгород","Архангельское","ФАП 1985 муниципальная",,,
"Смоленский","Ленинское","ФАП 1959",,,
"Смоленский","Степное","ФАП 1959",,,
"Смоленский","Речной","ФАП 1979",,,
"Смоленский","Раздольный",,,,
"Смоленский","Молочный",,,,
"Смоленский","Красный Маяк","ФАП 1967",,,
"Смоленский","Заречный","ФАП 1964 муниципальная",,,
"Смоленский","Красный Городок","ФАП 1995",,,
"Смоленский","Песчаное","ФАП 1970 муниципальная",,,
"Смоленский","Набережный",,,,
"Смоленский","Старотырышкино","ФАП",,,
"Смоленский","Маточный",,,,
"Смоленский","Черновая","ФАП 1975",,,
"Смоленский","Александровка","ФАП 1960",,,
"Советский","Глинка","ФАП 1970 муниципальная",,,
"Советский","Карасук","ФАП 1984",,,
"Советский","Колбаны","ФАП 1981 муниципальная",,,
"Советский","Лебединый",,,,
"Советский","Сосновка","ФАП 1986 муниципальная",,,
"Советский","Хуторки","ФАП 1980",,,
"Солонешенский","Большая Тихая","ФАП 1970 муниципальная",,,
"Солонешенский","Тальменка","ФАП 2002",,,
"Солонешенский","Новая Жизнь","ФАП",,,
,,1997,,,
"Солонешенский","Юртное","ФАП",,,
,,1983,,,
"Солонешенский","Искра","ФАП",,,
,,1959,,,
"Солонешенский","Демино","ФАП",,,
,,1996,,,
"Солонешенский","Тележиха","ФАП",,,
,,1960,,,
"Солонешенский","Карпово","ФАП",,,
,,1989,,,
"Солонешенский","Степное","ФАП",,,
,,1977,,,
"Солонешенский","Лютаево","ФАП 1969 муниципальная",,,
"Солтонский","Новая Ажинка","ФАП 1975",,,
"Солтонский","Караган","ФАП 1983",,,
"Солтонский","Шатобал","ФАП 1965",,,
"Солтонский","Урунск","ФАП 1979",,,
"Солтонский","Новотроицк","ФАП 1990 муниципальная",,,
"Солтонский","Тосток","ФАП 1992 муниципальная",,,
"Солтонский","Излап","ФАП 1956",,,
"Солтонский","Сайдып","ФАП 1990 муниципальная",,,
"Суетский","им Владимира Ильича","ФАП 1990 муниципальная",,,
"Суетский","Сибирский Гигант","ФАП 1964 муниципальная",,,
"Суетский","Украинский",,,,
"Суетский","Михайловка",,,,
"Суетский","Октябрьский","ФАП",,,
,,1965,,,
"Суетский","Боронский","ФАП",,,
,,1989,,,
"Табунский","Елизаветград","ФАП",,,
,,1980,,,
"Табунский","Новокиевка","ФАП",,,
,,1989,,,
"Табунский","Николаевка","ФАП",,,
,,1993,,,
"Табунский","Успенка","ФАП",,,
,,1985,,,
"Табунский","Удальное","ФАП",,,
,,1968,,,
"Табунский","Камышенка","ФАП",,,
,,1987,,,
"Табунский","Александровка","ФАП",,,
,,1981,,,
"Табунский","Забавное","ФАП",,,
,,1990,,,
"Табунский","Самбор","ФАП",,,
,,1969,,,
"Табунский","Хорошее","ФАП",,,
,,1969,,,
"Тальменский","Красный Боец",,,,
"Тальменский","Воронежская-Молодежная","ФАП",,,
,,1974,,,
"Тальменский","Сандалово","ФАП",,,
"Тальменский","Шипицино","ФАП",,,
"Тальменский","Кошелево","ФАП",,,
"Тальменский","Язово","ФАП",,,
,,1965,,,
"Тальменский","Литвиновка",,,,
"Тальменский","Загайново","ФАП",,,
,,1988,,,
"Тальменский","Речкуново","ФАП",,,
"Тальменский","Таскаево","ФАП",,,
"Тогульский","Титово","ФАП",,,
,,1983,,,
"Тогульский","Льнозавод",,,,
"Тогульский","Бураново","ФАП",,,
,,1959,,,
"Тогульский","Топтушка","ФАП",,,
,,1974,,,
"Тогульский","Колонково","ФАП",,,
,,1981,,,
"Топчихинский","Ульяновский",,,,
"Топчихинский","Колпаково",,,,
"Топчихинский","Михайловка",,,,
"Топчихинский","Чаузово","ФАП",,,
,,1985,,,
"Топчихинский","Труд","ФАП",,,
,,"1984 муниципальная",,,
"Топчихинский","Топольный","ФАП",,,
,,1990,,,
"Третьяковский","Лопатинка","ФАП",,,
,,1960,,,
"Третьяковский","Крючки","ФАП",,,
,,1966,,,
"Третьяковский","Семеновка","ФАП",,,
,,1967,,,
"Третьяковский","Верх-Алейка","ФАП",,,
,,1969,,,
"Третьяковский","Степной","ФАП",,,
,,1978,,,
"Третьяковский","Новокамышенка","ФАП",,,
,,1987,,,
"Троицкий","Червянка","ФАП",,,
,,1987,,,
"Троицкий","Уткуль","ФАП",,,
,,1974,,,
"Троицкий","Гордеевка","ДХПП",,,
"Троицкий","Песьянка","ФАП",,,
,,1971,,,
"Троицкий","Большая Речка","ФАП",,,
,,1977,,,
"Троицкий","Степной","ДХПП",,,
"Троицкий","Боровлянский","ДХПП",,,
"Троицкий","Еремино","ФАП",,,
"Троицкий","Усть-Гавриловка","ДХПП",,,
"Троицкий","Тюмень","ФАП",,,
,,1974,,,
"Тюменцевский","Кулундинский","ФАП",,,
,,1958,,,
"Тюменцевский","Трубачево","ФАП",,,
,,1996,,,
"Тюменцевский","Свободный","ФАП",,,
,,"1986 муниципальная",,,
"Угловский","Куйбышево","ФАП",,,
,,"1984 муниципальная",,,
"Угловский","Алексеевка","ФАП",,,
,,1960,,,
"Угловский","Тополинский лесхоз",,,,
"Угловский","Борисовка","ФАП",,,
,,1982,,,
"Угловский","Беленькое","ФАП",,,
,,1985,,,
"Угловский","Валовой Кордон","ФАП",,,
,,1983,,,
"Угловский","Новоугловский","ФАП",,,
,,1980,,,
"Угловский","Наумовка","ФАП",,,
,,1961,,,
"Угловский","Озерно-Кузнецовский Лесхоз","ФАП",,,
,,1975,,,
"Усть-Калманский","Слюдянка","ФАП",,,
,,1995,,,
"Усть-Калманский","Восточный","ФАП",,,
,,1962,,,
"Усть-Калманский","Верх-Слюдянка","ФАП",,,
,,1965,,,
"Усть-Калманский","Ельцовка","ФАП",,,
,,1983,,,
"Усть-Калманский","Бураново","ФАП",,,
,,1990,,,
"Усть-Калманский","Новый Чарыш","ФАП",,,
,,"1986 муниципальная",,,
"Усть-Пристанский","Коловый Мыс","ФАП 1987 муниципальная",,,
"Усть-Пристанский","Романово","ФАП 1981 муниципальная",,,
"Усть-Пристанский","Чеканиха","ФАП 1992 муниципальная",,,
"Усть-Пристанский","Белово","ФАП 1989",,,
"Хабарский","Поперечное","ФАП 1968",,,
"Хабарский","Малопавловка","ФАП 1982 муниципальная",,,
"Хабарский","Усть-Курья","ФАП 1987 муниципальная",,,
"Хабарский","Алексеевка",,,,
"Хабарский","Пионер Труда","ФАП 1967",,,
"Хабарский","Васильевка","ФАП 1968",,,
"Хабарский","Богатское","ФАП 1967",,,
"Хабарский","Новоплотава","ФАП 1963 муниципальная",,,
"Хабарский","Рассвет","ФАП 1987 муниципальная",,,
"Целинный","Чесноково","ДХПП",,,
"Целинный","Степь-Чумыш",,,,
"Целинный","Верх-Яминское","ФАП",,,
"Целинный","Сверчково","ФАП 1981 муниципальная",,,
"Чарышский","Красный Май",,,,
"Чарышский","Первомайский",,,,
"Чарышский","Чайное","ФАП 1965",,,
"Чарышский","Щебнюха","ФАП 1968",,,
"Чарышский","Долинское","ФАП 1999",,,
"Чарышский","Красные Орлы","ФАП 1968",,,
"Чарышский","Майорка","ФАП 1964 муниципальная",,,
"Чарышский","Покровка","ФАП 1965",,,
"Чарышский","Большой Бащелак","ФАП 1966 муниципальная",,,
"Чарышский","Маральи Рожки","ФАП 1982 муниципальная",,,
"Чарышский","Усть-Тулатинка","ФАП 1978",,,
"Шелаболихинский","Чайкино","ФАП 1987 муниципальная",,,
"Шелаболихинский","Ивановка","ФАП 1982 муниципальная",,,
"Шелаболихинский","Подгорный","ФАП 1963 муниципальная",,,
"Шипуновский","Мирный","ФАП 1988",,,
"Шипуновский","Новый Путь",,,,
"Шипуновский","Артамоново","ФАП 1980",,,
"Шипуновский","Качусово","ФАП 1975",,,
"Шипуновский","Воробьёво","ФАП 1957 муниципальная",,,
"Шипуновский","Барчиха","ФАП 1981 муниципальная",,,
"Шипуновский","Калиновка","ФАП 1986 муниципальная",,,
"Шипуновский","Новосельское","ФАП 1950 муниципальная",,,
"Шипуновский","Андреевка","ФАП 1982 муниципальная",,,
"Шипуновский","Бестужево","ФАП 1989",,,
"Шипуновский","Коробейниково","ФАП 1980",,,
"Шипуновский","Метели","ФАП 1976 муниципальная",,,
"Шипуновский","Ильинка","ФАП 1991",,,
"Шипуновский","Кузнечиха","ФАП 1983",,,
"Шипуновский","Кособоково","ФАП 2015",,,
"Алейский","Александровский","ФАП",,,
"Алейский","Толстая Дуброва","ФАП",,,
"Алейский","Савинка","ФАП",,,
"Алейский","Кировское","ФАП",,,
"Алейский","Плотава",,,,"СВА"
"Алейский","Алейский","ФАП",,,
"Алейский","Большепанюшево","ФАП",,,
"Алейский","Красный Яр","ФАП",,,
"Алейский","Совхозный","ФАП",,,
"Алейский","Бориха","ФАП",,,
"Алейский","Кабаково","ФАП",,,
"Алейский","Вавилон","ФАП 2013",,,
"Алейский","Безголосово","ФАП",,,
"Алейский","Заветы Ильича","ФАП",,,
"Алейский","Урюпино","ФАП",,,
"Алейский","Кашино",,,,"СВА"
"Алейский","Осколково",,,,"СВА"
"Алейский","Моховское",,,,"СВА"
"Алейский","Солнечный",,,,
"Алейский","Боровское",,,,"СВА"
"Алтайский","Нижнекаянча","ФАП 1962 муниципальная",,,
"Алтайский","Тоурак","ФАП 1962 муниципальная",,,
"Алтайский","Макарьевка","ФАП 1981 муниципальная",,,
"Алтайский","Куяча","ФАП",,,
"Алтайский","Куяган",,,,"СВА 1927"
"Баевский","Прослауха","ФАП 1968 муниципальная",,,
"Баевский","Верх-Пайва","ФАП",,,
"Баевский","Плотава","ФАП",,,
"Баевский","Ситниково",,,,"СВА"
"Баевский","Нижнечуманка","ФАП 2016 краевая",,,
"Баевский","Верх-Чуманка","ФАП 1969 муниципальная",,,
"Барнаул","Ползуново",,,,
"Барнаул","Березовка",,,,
"Барнаул","Плодопитомник",,,,
"Барнаул","Черницк",,"ФЗ",,
"Бийск","Одинцовка",,,,
"Бийский","Восточный","ФАП 1982 муниципальная",,,
"Бийский","Амурский","ФАП 1985 муниципальная",,,
"Бийский","Чуйский","ФАП 1973 муниципальная",,,
"Бийский","Ясная Поляна","ФАП 1975 муниципальная",,,
"Бийский","Усть-Катунь","ФАП 1985 муниципальная",,,
"Бийский","Старая Чемровка","ФАП 1979 муниципальная",,,
"Бийский","Боровой","ФАП 1995 муниципальная",,,
"Бийский","Пригородный",,,,
"Бийский","Семеновод","ФАП 1984 муниципальная",,,
"Бийский","Большеугренево","ФАП 1984 муниципальная",,,
"Бийский","Усятское","ФАП 1987 муниципльная",,,
"Бийский","Заря","ФАП 1986 муниципальная",,,
"Бийский","Верх-Бехтемир","ФАП",,,
"Благовещенский","Преградинка",,,,
"Благовещенский","Глядень-3",,,,
"Благовещенский","Мельниковка","ФАП 1984 муниципальная",,,
"Благовещенский","Алексеевка","ФАП 1980 муниципальная",,,
"Благовещенский","Татьяновка","ФАП 1988 муниципальная",,,
"Благовещенский","Долинка",,,,
"Благовещенский","Новокулундинка",,,,"СВА"
"Благовещенский","Нижний Кучук","ФАП 1986 муниципальная",,,
"Благовещенский","Орлеан","ФАП 1987 муниципльная",,,
"Благовещенский","Суворовка","ФАП 1982 муниципальная",,,
"Благовещенский","Яготино","ФАП 1990 краевая",,,
"Благовещенский","Николаевка","ФАП 1986 краевая",,,
"Благовещенский","Глядень","ФАП 1988 краевая",,,
"Благовещенский","Шимолино","ФАП 1964 муниципальная",,,
"Бурлинский","Орехово","ФАП 1968 муниципальная",,,
"Бурлинский","Партизанское",,,,
"Бурлинский","Лесное","ФАП 1989",,,
"Бурлинский","Новопесчаное","ФАП 1983",,,
"Бурлинский","Новосельское","ФАП 1975 муниципальная",,,
"Бурлинский","Михайловка","ФАП 1953",,,
"Бурлинский","Устьянка",,,,"СВА 1972"
"Быстроистокский","Смоленский",,,,
"Быстроистокский","Верх-Озерное","ФАП 1975 муниципальная",,,
"Быстроистокский","Хлеборобное",,,,"УБ 1991"
"Быстроистокский","Приобское","ФАП",,,
"Быстроистокский","Новопокровка",,,,"СВА 1975"
"Быстроистокский","Акутиха",,,,"СВА 1963"
"Волчихинский","Пятков Лог","ФАП 1967 муниципальная",,,
"Волчихинский","Приборовое","ФАП 1980 муниципальная",,,
"Волчихинский","Коминтерн","ФАП 1985 муниципальная",,,
"Волчихинский","Новокормиха","ФАП 1955 муниципальная",,,
"Волчихинский","Березовский","ФАП 1963 муниципальная",,,
"Волчихинский","Правда","ФАП 1979 муниципальная",,,
"Волчихинский","Селиверстово","ФАП 2001 муниципальная",,,
"Волчихинский","Солоновка",,,,"УБ"
"Волчихинский","Бор-Форпост","ФАП 1982 муниципальная",,,
"Волчихинский","Усть-Волчиха","ФАП 1971 муниципальная",,,
"Егорьевский","Кругло-Семенцы","ФАП 1983 муниципальная",,,
"Егорьевский","Шубинка","ФАП 1993 краевая",,,
"Егорьевский","Перешеечный","ФАП 2013 краевая",,,
"Егорьевский","Малая Шелковка","ФАП 1988 муниципальная",,,
"Егорьевский","Первомайское",,,,"СВА 1968"
"Егорьевский","Титовка","ФАП 1935 муниципальная",,,
"Ельцовский","Черемшанка","ФАП 1989 краевая",,,
"Ельцовский","Новокаменка","ФАП 1982 краевая",,,
"Ельцовский","Пуштулим",,,,"СВА 1974"
"Завьяловский","Тумановский","ФАП 2000 муниципальная",,,
"Завьяловский","Чернавка","ФАП 1998 муниципальная",,,
"Завьяловский","Светлое","ФАП 1978 муниципальноая",,,
"Завьяловский","Овечкино","ФАП 2016 краевая",,,
"Завьяловский","Камышенка",,,,"СВА 1986"
"Залесовский","Большой Калтай","ФАП 1981 муниципальная",,,
"Залесовский","Тундриха","ФАП 1975 муниципальная",,,
"Залесовский","Думчево","ФАП 2017 краевая",,,
"Залесовский","Кордон","ФАП 1965 муниципальная",,,
"Залесовский","Борисово","ФАП 1965 муниципальная",,,
"Залесовский","Шатуново",,,,"СВА 1992"
"Заринский","Озерное","ФАП 1956 муниципальная",,,
"Заринский","Зыряновка","ФАП 1987 муниципльная",,,
"Заринский","Среднекрасилово","ФАП",,,
"Заринский","Воскресенка","ФАП",,,
"Заринский","Сосновка","ФАП 1981 муниципальная",,,
"Заринский","Яново","ФАП 1975 муниципальная",,,
"Заринский","Гришино","ФАП",,,
"Заринский","Аламбай","ФАП 1977 муниципальная",,,
"Заринский","Новозыряново","ФАП 1983 муниципальная",,,
"Заринский","Шпагино","ФАП 1956 муниципальная",,,
"Заринский","Гоношиха","ФАП 1989 муниципальная",,,
"Заринский","Стародраченино","ФАП",,,
,,"1988 муниципальная",,,
"Заринский","Комарское","ФАП 1983 муниципальная",,,
"Заринский","Верх-Камышенка","ФАП 1969 муниципальная",,,
"Заринский","Жуланиха","ФАП 1975 муниципальная",,,
"Заринский","Новодраченино","ФАП 1986 муниципальная",,,
"Заринский","Новокопылово","ФАП 2012 государственная",,,
"Заринский","Новомоношкино",,,,"СВА 1969"
"Змеиногорский","Гальцовка","ФАП 1982",,,
"Змеиногорский","Черепановский","ФАП 1985 муниципальная",,,
"Змеиногорский","Кузьминка","ФАП 1976",,,
"Змеиногорский","Октябрьский","ФАП 1995 муниципальная",,,
"Змеиногорский","Беспаловский","ФАП 1971 муниципальная",,,
"Змеиногорский","Таловка","ФАП 1989",,,
"Зональный","Новая Михайловка","ФАП 1974",,,
"Зональный","Сафоновка","ФАП 1969 муниципальная",,,
"Зональный","Комарово","ФАП 1970",,,
"Зональный","Савиново","ФАП 1982",,,
"Калманский","Шилово","ФАП 1989",,,
"Калманский","Кубанка","ФАП 1981 муниципальная",,,
"Калманский","Усть-Алейка","ФАП",,,
"Калманский","Троицк",,,,
"Калманский","Калистратиха","ФАП",,,
"Калманский","Шадрино","ФАП",,,
"Калманский","Зимари","ФАП 1979 муниципальная",,,
"Калманский","Алтай",,,,"СВА 1982"
"Каменский","Филипповский","ФАП 1970",,,
"Каменский","Дресвянка","ФАП 1961",,,
"Каменский","Октябрьский","ФАП",,,
"Каменский","Верх-Аллак","ФАП 1933",,,
"Каменский","Толстовский","ФАП",,,
"Каменский","Гонохово",,,,"СВА 1988"
"Каменский","Луговое","ФАП 1968 муниципальная",,,
"Каменский","Рыбное",,,,"СВА 1970"
"Каменский","Плотинная","ФАП 1970",,,
"Каменский","Поперечное",,,,"СВА 1978"
"Каменский","Столбово",,,,"УБ. 1961"
"Каменский","Аллак","ФАП 2016 краевая",,,
"Ключевский","Зеленая Поляна","ФАП 1981 муниципальная",,,
"Ключевский","Покровка","ФАП 1973 муниципальная",,,
"Ключевский","Каип","ФАП 1991",,,
"Ключевский","Истимис","ФАП 1984 муниципальная",,,
"Ключевский","Новополтава",,,,"СВА 1969"
"Ключевский","Петухи",,,,"СВА 1979"
"Косихинский","Плотниково","ФАП 1984 муниципальная",,,
"Косихинский","Каркавино","ФАП 1981 муниципальная",,,
"Косихинский","Верх-Жилино","ФАП 1982",,,
"Косихинский","Глушинка","ФАП 1980 муниципальная",,,
"Косихинский","Полковниково","ФАП 2014",,,
"Косихинский","Малахово","ФАП 1988",,,
"Косихинский","Контошино",,,,"СВА 1970"
"Косихинский","Лосиха",,,,"СВА 1968"
"Косихинский","Украинский",,,,"СВА 1965"
"Красногорский","Талый","ФАП 1967 муниципальная",,,
"Красногорский","Старая Суртайка","ФАП 1967 муниципальная",,,
"Красногорский","Карагуж","ФАП 1970",,,
"Красногорский","Усть-Кажа",,,,"СВА 1968"
"Красногорский","Соусканиха",,,"ЦОВП",
"Красногорский","Новозыково","ФАП 1968 муниципальная",,,
"Краснощёковский","Усть-Пустынка","ФАП 1986",,,
"Краснощёковский","Акимовка","ФАП 1992",,,
"Краснощёковский","Чинета","ФАП 1991",,,
"Краснощёковский","Куйбышево","ФАП",,,
"Краснощёковский","Суетка","ФАП 1986",,,
"Краснощёковский","Усть-Козлуха","ФАП 2016 краевая",,,
"Крутихинский","Боровое","ФАП 1979 муниципальная",,,
"Крутихинский","Подборный","ФАП 1986",,,
"Крутихинский","Маловолчанка","ФАП 1976",,,
"Крутихинский","Буян",,,,"СВА 1978"
"Крутихинский","Заковряшино","ФАП 1970",,,
"Крутихинский","Прыганка",,,,"СВА 1971"
"Кулундинский","Константиновка","ФАП 1966",,,
"Кулундинский","Мышкино",,,,
"Кулундинский","Новопетровка","ФАП 1970",,,
"Кулундинский","Мирабилит","ФАП 1988",,,
"Кулундинский","Семеновка","ФАП 1978 муниципальноая",,,
"Кулундинский","Ананьевка","ФАП 1989",,,
"Кулундинский","Златополь",,,,"СВА 1986"
"Кулундинский","Курск",,,,"СВА 1985"
"Курьинский","Новофирсово","ФАП 1986",,,
"Курьинский","Кузнецово","ФАП 1900",,,
"Курьинский","Трусово","ФАП 1988",,,
"Курьинский","Ивановка",,,,"СВА 1986"
"Курьинский","Краснознаменка",,,,"СВА 1957"
"Курьинский","Усть-Таловка","ФАП 1980 муниципальная",,,
"Кытмановский","Старая Тараба","ФАП 1985 муниципальная",,,
"Кытмановский","Порошино","ФАП 1988",,,
"Кытмановский","Сосновый Лог","ФАП 2014",,,
"Кытмановский","Семено-Красилово","ФАП 1974",,,
"Кытмановский","Тяхта","ФАП 1983",,,
"Кытмановский","Червово","ФАП 1989",,,
"Кытмановский","Сунгай",,,,"СВА 1972"
"Кытмановский","Тягун",,,,
"Кытмановский","Новая Тараба","ФАП 1979 муниципальная",,,
"Кытмановский","Октябрьский",,,,"СВА 1986"
"Кытмановский","Дмитро-Титово","ФАП 1957",,,
"Локтевский","Александровка","ФАП 1972",,,
"Локтевский","Новенькое","ФАП 1987 муниципльная",,,
"Локтевский","Николаевка","ФАП 1989",,,
"Локтевский","Георгиевка","ФАП 2005",,,
"Локтевский","Самарка","ФАП 1972",,,
"Локтевский","Советский Путь","ФАП 2017 краевая",,,
"Локтевский","Вторая Каменка","ФАП 1968 муниципальная",,,
"Локтевский","Золотуха","ФАП 1979 муниципальная",,,
"Локтевский","Устьянка","ФАП 2015",,,
"Локтевский","Ремовский","ФАП 1990",,,
"Локтевский","Покровка","ФАП 1977 муниципальная",,,
"Локтевский","Гилево","ФАП. 1998",,,
"Локтевский","Успенка","ФАП 1987 муниципльная",,,
"Мамонтовский","Украинка","ФП",,,
"Мамонтовский","Травное","ФП 2011",,,
"Мамонтовский","Ермачиха","ФП 1970",,,
"Мамонтовский","Первомайский","ФП",,,
"Мамонтовский","Суслово","ФАП",,,
"Мамонтовский","Кадниково","ФАП",,,
"Мамонтовский","Гришенское",,,,"СВА 1989"
"Мамонтовский","Малые Бутырки","ФАП 1984 муниципальная",,,
"Мамонтовский","Черная Курья","ФАП",,,
"Мамонтовский","Покровка","ФАП",,,
"Михайловский","Ащегуль","ФАП 1988",,,
"Михайловский","Назаровка","ФАП 1988",,,
"Михайловский","Полуямки",,,,"СВА 1962"
"Михайловский","Николаевка",,,,"СВА 1985"
"Михайловский","Бастан","ФАП 1988",,,
"Немецкий национальный","Камыши","ФАП 1977 муниципальная",,,
"Новичихинский","Лобаниха","ФАП 1968 муниципальная",,,
"Новичихинский","Павловка","ФАП 1973 муниципальная",,,
"Новичихинский","10 лет Октября","ФАП 1967 муниципальная",,,
"Новичихинский","Долгово","ФАП 1969 муниципальная",,,
"Новичихинский","Поломошное","ФАП 1972",,,
"Новичихинский","Токарево","ФАП 1969 муниципальная",,,
"Новичихинский","Солоновка","ФАП 1961",,,
"Новичихинский","Мельниково","ФАП 1970",,,
"Павловский","Боровиково","ДХПП",,,
"Павловский","Сараи",,,,
"Павловский","Урожайный",,,,
"Павловский","Чернопятово","ФАП",,,
"Павловский","Елунино","ФАП",,,
"Павловский","Бурановка",,,,"СВА 1984"
"Павловский","Арбузовка",,,,"СВА"
"Павловский","Рогозиха","ФАП",,,
"Панкрушихинский","Кривое","ФАП 1987 муниципльная",,,
"Панкрушихинский","Борисовский","ФАП 1980 муниципальная",,,
"Панкрушихинский","Урываево","ФАП 1967 муниципальная",,,
"Панкрушихинский","Зыково","ФАП 1997",,,
"Панкрушихинский","Берёзовский","ФАП 1980 муниципальная",,,
"Панкрушихинский","Романово","ФАП 1987 муниципльная",,,
"Панкрушихинский","Высокая Грива","ФАП 1987 муниципльная",,,
"Панкрушихинский","Луковка","ФАП 1972",,,
"Панкрушихинский","Зятьково",,,,"УБ 1969"
"Панкрушихинский","Велижанка","ФАП 2016 краевая",,,
"Первомайский","Новокраюшкино","ФАП 1972",,,
"Первомайский","Новоповалиха","ФАП 1962 муниципальная",,,
"Первомайский","Лесная Поляна","ФАП 1972",,,
"Первомайский","Октябрьское","ФАП 1990",,,
"Первомайский","Новоберезовка","ФАП 1983",,,
"Первомайский","Рогуличный","ФАП 1986",,,
"Первомайский","Правда","ФАП 1970",,,
"Первомайский","Новый",,,,
"Первомайский","Ильича","ФАП 1989",,,
"Первомайский","Солнечное",,,,
"Первомайский","Рассказиха","ФАП 1928",,,
"Первомайский","Сосновка","ФАП 1995 муниципальная",,,
"Первомайский","Акулово","ФАП 2014",,,
"Первомайский","Лесной","ФАП 2016 краевая",,,
"Первомайский","Журавлиха",,,,"СВА 1995"
"Первомайский","Казачий","ФАП 1961",,,
"Первомайский","Жилино",,,,"СВА 1959"
"Петропавловский","Соловьиха","ФАП 2016 краевая",,,
"Петропавловский","Николаевка","ФАП 1987 муниципльная",,,
"Петропавловский","Новообинка",,,,"СВА 1985"
"Петропавловский","Паутово",,,,"СВА 1978"
"Поспелихинский","Крутой Яр",,,,
"Поспелихинский","Котляровка","ФАП 1998 муниципальная",,,
"Поспелихинский","Гавриловский","ФАП 1991",,,
"Поспелихинский","Вавилонский","ФАП 1987 муниципльная",,,
"Поспелихинский","Факел социализма","ФАП 1960",,,
"Поспелихинский","Хлебороб","ФАП 1972",,,
"Поспелихинский","Озимая","ФАП 1972",,,
"Поспелихинский","12 лет Октября",,,,"СВА 1967"
"Поспелихинский","Красноярское","ФАП 2015",,,
"Ребрихинский","Молодежный","ФАП",,,
"Ребрихинский","Плоскосеминский","ФАП 1988",,,
"Ребрихинский","Ясная Поляна","ФАП 1986",,,
"Ребрихинский","Зеленая Роща","ФАП 1971 муниципальная",,,
"Ребрихинский","Георгиевка","ФАП",,,
"Ребрихинский","Шумилиха","ФАП",,,
"Ребрихинский","Боровлянка","ФАП 1964 муниципальная",,,
"Ребрихинский","Подстепное",,,,"СВА 1963"
"Ребрихинский","Паново","ФАП 1991",,,
"Ребрихинский","Ворониха",,,,"СВА 1959"
"Ребрихинский","Рожнев Лог","ФАП 1967",,,
"Ребрихинский","Зимино",,,,"СВА 1950"
"Родинский","Новотроицк","ФАП 1978 муниципальноая",,,
"Родинский","Вознесенка","ФАП",,,
"Родинский","Каяушка","ФАП",,,
"Родинский","Красный Алтай","ФАП",,,
"Родинский","Центральное",,,,"СВА 1992"
"Родинский","Зелёный Луг","ФАП 1986",,,
"Родинский","Шаталовка","ФАП 1989",,,
"Родинский","Ярославцев Лог","ФАП 1981 муниципальная",,,
"Родинский","Покровка",,,,"СВА 1986"
"Родинский","Раздольное",,,,"СВА 1991"
"Родинский","Кочки","ФАП 1983",,,
"Родинский","Степной Кучук","ФАП 1989",,,
"Романовский","Грановка","ФАП 1977 муниципальная",,,
"Романовский","Майский","ФАП 1976",,,
"Романовский","Дубровино","ФАП 1985 муниципальная",,,
"Романовский","Закладное","ФАП 1983",,,
"Романовский","Тамбовский",,,,"СВА 1960"
"Романовский","Гилёв-Лог","ФАП 1960",,,
"Романовский","Гуселетово",,,,"СВА 1986"
"Рубцовский","Пушкино","ФАП 1985 муниципальная",,,
"Рубцовский","Катково","ФАП 1983",,,
"Рубцовский","Вишнёвка","ФАП 1979 муниципальная",,,
"Рубцовский","Романовка","ФАП 1990",,,
"Рубцовский","Приозерный","ФАП 1983",,,
"Рубцовский","Большая Шелковка","ФАП 1984 муниципальная",,,
"Рубцовский","Колос","ФАП 1985 муниципальная",,,
"Рубцовский","Мамонтово","ФАП 1984 муниципальная",,,
"Рубцовский","Мичуринский","ФАП 1986",,,
"Рубцовский","Тишинка","ФАП 1958",,,
"Рубцовский","Березовка","ФАП 1990",,,
"Рубцовский","Саратовка","ФАП 1985 муниципальная",,,
"Рубцовский","Новороссийский","ФАП 1969 муниципальная",,,
"Рубцовский","Дальний",,,,"СВА 1950"
"Рубцовский","Новосклюиха","ФАП 1980 муниципальная",,,
"Рубцовский","Новониколаевка",,,,"СВА 1961"
"Рубцовский","Самарка","ФАП 1987 муниципльная",,,
"Рубцовский","Бобково","ФАП 1967",,,
"Рубцовский","Новоалександровка","ФАП 1989",,,
"Рубцовский","Куйбышево","ФАП 1987 муниципльная",,,
"Славгород","Покровка","ФАП 1963 муниципальная",,,
"Славгород","Пригородное","ФАП 1990",,,
"Славгород","Бурсоль","ФАП 1970",,,
"Славгород","Семеновка",,,,"СВА 1989"
"Славгород","Нововознесенка",,,,"СВА 1963"
"Смоленский","Первомайское","ФАП 1965 муниципальная",,,
"Смоленский","Катунское","ФАП 1987 муниципльная",,,
"Смоленский","Усть-Катунь","ФАП 1987 муниципльная",,,
"Смоленский","Ануйское","ФАП 2015",,,
"Смоленский","Верх-Обский",,,,"СВА 1965"
"Советский","Колово","ФАП 1971 муниципальная",,,
"Советский","Семилетка","ФАП 1984 муниципальная",,,
"Советский","Талица","ФАП 2014",,,
"Советский","Половинка","ФАП 1980 муниципальная",,,
"Советский","Платово","ФАП 1980 муниципальная",,,
"Советский","Никольское",,,,"СВА 1985"
"Советский","Шульгин Лог","ФАП 2016 краевая",,,
"Советский","Кокши",,,,"СВА 1967"
"Солонешенский","Туманово","ФАП 1987 муниципльная",,,
"Солонешенский","Берёзовка","ФАП 1987 муниципльная",,,
"Солонешенский","Сибирячиха",,,,"УБ 1973"
"Солонешенский","Топольное",,,,"СВА 1981"
"Солтонский","Березово","ФАП 1990",,,
"Солтонский","Макарьевка","ФАП 1983",,,
"Солтонский","Сузоп","ФАП",,,
,,1965,,,
"Солтонский","Нижняя Ненинка","ФАП",,,
,,1984,,,
"Солтонский","Ненинка","ФАП 1967",,,
"Суетский","Александровка","ФАП",,,
,,1977,,,
"Суетский","Нижняя Суетка","ФАП",,,
,,1965,,,
"Табунский","Лебедино","ФАП",,,
,,1987,,,
"Табунский","Большеромановка","ФАП",,,
,,1956,,,
"Табунский","Сереброполь",,,,"СВА"
,,,,,1980
"Тальменский","Казанцево","ФАП",,,
,,1982,,,
"Тальменский","Забродино","ФАП",,,
"Тальменский","Новоеловка","ФАП",,,
"Тальменский","Лушниково","ФАП",,,
"Тальменский","Наумово","ФАП",,,
"Тальменский","Выползово","ФАП",,,
"Тальменский","Шишкино",,,,"СВА"
,,,,,1995
"Тальменский","Староперуново","ФАП",,,
"Тальменский","Новотроицк","ФАП",,,
,,2009,,,
"Тальменский","Шадринцево","ФАП",,,
,,1970,,,
"Тальменский","Восточный","ФАП",,,
"Тальменский","Зайцево","ФАП",,,
,,1952,,,
"Тальменский","Курочкино",,,,"СВА"
,,,,,1990
"Тальменский","Кашкарагаиха","ФАП",,,
"Тогульский","Новоиушино","ФАП",,,
,,1972,,,
"Тогульский","Старый Тогул","ФАП",,,
,,1968,,,
"Топчихинский","Зеленый","ФАП",,,
,,1970,,,
"Топчихинский","Песчаное","ФАП",,,
,,1984,,,
"Топчихинский","Красноярка","ФАП",,,
,,1980,,,
"Топчихинский","Дружба","ФАП",,,
,,1985,,,
"Топчихинский","Сидоровка","ФАП",,,
,,1969,,,
"Топчихинский","Покровка","ФАП",,,
,,1990,,,
"Топчихинский","Зимино","ФАП",,,
,,1977,,,
"Топчихинский","Хабазино","ФАП",,,
,,1963,,,
"Топчихинский","Макарьевка","ФАП",,,
,,1980,,,
"Топчихинский","Ключи","ФАП",,,
,,1992,,,
"Топчихинский","Переясловка",,,,
"Топчихинский","Победим",,,,"СВА"
,,,,,1967
"Топчихинский","Белояровка",,,,
"Топчихинский","Володарка","ФАП",,,
,,1988,,,
"Третьяковский","Новоалейское",,,,
,,"ФАП",,,
,,1979,,,
"Третьяковский","Михайловка","ФАП",,,
,,1989,,,
"Третьяковский","Шипуниха","ФАП",,,
,,1983,,,
"Третьяковский","Первокаменка","ФАП",,,
,,2017,,,
"Третьяковский","Первомайский","ФАП",,,
,,1981,,,
"Третьяковский","Третьяково",,,,"СВА"
,,,,,1990
"Третьяковский","Плоское","ФАП",,,
,,1995,,,
"Третьяковский","Садовый","ФАП",,,
,,1986,,,
"Троицкий","Вершинино","ФАП",,,
,,1986,,,
"Троицкий","Озеро-Петровское","ФАП",,,
,,1984,,,
"Троицкий","Многоозерный","ФАП",,,
,,1975,,,
"Троицкий","Белое","ФАП",,,
,,2016,,,
"Троицкий","Загайново","ФАП",,,
,,1988,,,
"Троицкий","Октябрьский",,,,
"Троицкий","Новоеловка","ФАП",,,
,,1990,,,
"Троицкий","Хайрюзовка","ФАП",,,
,,1977,,,
"Троицкий","Горновое","ФАП",,,
,,1993,,,
"Троицкий","Ельцовка","ФАП1980",,,
"Троицкий","Зеленая Поляна","ФАП",,,
,,1980,,,
"Троицкий","Петровка","ФАП",,,
,,1989,,,
"Троицкий","Краснояры","ФАП",,,
,,1983,,,
"Тюменцевский","Сосновка","ФАП",,,
,,1983,,,
"Тюменцевский","Мезенцево","ФАП",,,
,,1988,,,
"Тюменцевский","Урывки","ФАП",,,
,,1956,,,
"Тюменцевский","Карповский","ФАП",,,
,,1980,,,
"Тюменцевский","Заводской","ФАП",,,
,,1941,,,
"Тюменцевский","Грязново","ФАП",,,
,,1974,,,
"Тюменцевский","Андроново","ФАП",,,
,,1974,,,
"Тюменцевский","Черемшанка","ФАП",,,
,,1986,,,
"Тюменцевский","Юдиха","ФАП",,,
,,1995,,,
"Тюменцевский","Ключи",,,,
,,"ФАП",,,
,,1937,,,
"Тюменцевский","Королёвский","ФАП",,,
,,1972,,,
"Тюменцевский","Берёзовка","ФАП",,,
,,1987,,,
"Угловский","Шадруха","ФАП",,,
,,1975,,,
"Угловский","Симоново","ФАП",,,
"Угловский","Мирный",,,,"УБ"
,,,,,1978
"Угловский","Лаптев Лог",,,,"УБ"
,,,,,1985
"Угловский","Круглое","ФАП",,,
,,1978,,,
"Угловский","Топольное","ФАП",,,
,,1988,,,
"Угловский","Павловка","ФАП",,,
,,1980,,,
"Усть-Калманский","Усть-Камышенка","ФАП",,,
,,1990,,,
"Усть-Калманский","Приозерный","ФАП",,,
,,1986,,,
"Усть-Калманский","Пономарево","ФАП",,,
,,1988,,,
"Усть-Калманский","Новокалманка","ФАП",,,
,,1965,,,
"Усть-Калманский","Кабаново",,,,"СВА"
,,,,,1989
"Усть-Калманский","Новобураново",,,,"СВА"
,,,,,1957
"Усть-Пристанский","Усть-Журавлиха","ФАП",,,
"Усть-Пристанский","Клепиково","ФАП",,,
,,2014,,,
"Усть-Пристанский","Краснодарское","ФАП",,,
"Усть-Пристанский","Троицкое","ФАП 1970",,,
"Усть-Пристанский","Брусенцево","ФАП 1980 муниципальная",,,
"Усть-Пристанский","Нижняя Гусиха","ФАП 1962 муниципальная",,,
"Усть-Пристанский","Елбанка","ФАП 1968 муниципальная",,,
"Усть-Пристанский","Красноярка","ФАП 1960",,,
"Усть-Пристанский","Нижнеозерное","ФАП 1972",,,
"Усть-Пристанский","Вяткино","ФАП 1986",,,
"Хабарский","Плесо-Курья","ФАП 1987 муниципльная",,,
"Хабарский","Топольное","ФАП 1989",,,
"Хабарский","Зятькова Речка",,,,"СВА 1988"
"Хабарский","Целинный","ФАП 1980 муниципальная",,,
"Хабарский","Свердловское",,,,"СВА 1972"
"Хабарский","Мичуринское",,,,"СВА 1986"
"Хабарский","Мартовка",,,,"СВА 1967"
"Хабарский","Утянка","ФАП 1973 муниципальная",,,
"Целинный","Поповичи","ФАП 1979 муниципальная",,,
"Целинный","Хомутино","ФАП 1987 муниципльная",,,
"Целинный","Верх-Марушка","ФАП 1965 муниципальная",,,
"Целинный","Сухая Чемровка","ФАП 1984 муниципальная",,,
"Целинный","Дружба","ФАП 1980 муниципальная",,,
"Целинный","Ложкино","ФАП 1985 муниципальная",,,
"Целинный","Победа","ФАП 1974",,,
"Целинный","Овсянниково",,,,"СВА 1980"
"Целинный","Шалап","ФАП 1986",,,
"Целинный","Еланда","ФАП 1980",,,
"Чарышский","Маяк",,,,"УБ 1965"
"Чарышский","Алексеевка","ФАП 1992",,,
"Чарышский","Тулата",,,,"СВА 1978"
"Чарышский","Берёзовка","ФАП 1971 муниципальная",,,
"Чарышский","Сентелек",,,,"СВА 1982"
"Чарышский","Малый Бащелак",,,,"УБ 1969"
"Чарышский","Маралиха",,,,"УБ 1968"
"Шелаболихинский","Омутское","ФАП 1985 муниципальная",,,
"Шелаболихинский","Батурово","ФАП 1967",,,
"Шелаболихинский","Макарово","ФАП 1985 муниципальная",,,
"Шелаболихинский","Селезнево","ФАП 1982",,,
"Шелаболихинский","Иня","ФАП 2016 краевая",,,
"Шелаболихинский","Ильинка","ФАП 1986",,,
"Шелаболихинский","Новообинцево","ФАП 1980",,,
"Шипуновский","Ясная Поляна","ФАП",,,
"Шипуновский","Баталово","ФАП 1980",,,
"Шипуновский","Новоивановка","ФАП 1980",,,
"Шипуновский","Усть-Порозиха","ФАП 1986",,,
"Шипуновский","Белоглазово",,,,"СВА 1958"
"Шипуновский","Быково","ФАП 1982",,,
"Шипуновский","Ельцовка",,,,"СВА 1958"
"Шипуновский","Первомайский","ФАП 1987 муниципльная",,,
"Шипуновский","Зеркалы","ФАП 1984 муниципальная",,,
"Шипуновский","Шипуново(Российского с/с)","ФАП 1983",,,
"Шипуновский","Порожнее","ФАП 1986",,,
"Шипуновский","Нечунаево","ФАП 1989",,,
"Шипуновский","Самсоново","ФАП 2016 краевая",,,
"Шипуновский","Урлапово","ФАП 1985 муниципальная",,,
"Шипуновский","Бобровка",,,,"СВА 1989"
"Алейский","Дружба",,,,"СВА 1986"
"Алтайский","Сараса","ФАП 1969 муниципальная",,,
"Алтайский","Россоши","ФАП 1980 муниципальная",,,
"Алтайский","Старобелокуриха","ФАП",,,
,,"1973 муниципальная",,,
"Барнаул","Ягодное",,"ФЗ",,
"Барнаул","Новомихайловка",,,,
"Барнаул","Садоводов",,,,
"Барнаул","Лесной","ФАП",,,
"Бийск","Фоминское",,,,
"Бийский","Шебалино",,,,"СВА 1966"
"Бийский","Стан-Бехтемир","ФАП 1992 муниципальная",,,
"Бийский","Светлоозерское","ФАП 1982 муниципальная",,,
"Бийский","Новиково",,,,"СВА 1992"
"Бийский","Енисейское","ФАП 1965 муниципальная",,,
"Бийский","Малоугренево","ФАП 1994 муниципальная",,,
"Быстроистокский","Верх-Ануйское",,,,"СВА 1975"
"Волчихинский","Малышев Лог","ФАП 1987 муниципальная",,,
"Волчихинский","Вострово",,,,"СВА 1966"
"Егорьевский","Лебяжье","ФАП 1967. муниципальная",,,
"Егорьевский","Сросты",,,,"СВА 1959"
"Ельцовский","Мартыново",,,,"СВА 1974"
"Завьяловский","Харитоново",,,,"СВА 1986"
"Завьяловский","Гилёвка",,,,"СВА 1967"
"Завьяловский","Малиновский",,,,"СВА 1984"
"Завьяловский","Чистоозёрка","ФАП 1983 муниципальная",,,
"Завьяловский","Глубокое",,,,"СВА 1975"
"Завьяловский","Гонохово",,,,"СВА 1991"
"Залесовский","Черемушкино",,,,"СВА 1977"
"Залесовский","Пещерка","ФАП 1965 муниципальная",,,
"Заринский","Хмелевка","ФАП",,,
"Заринский","Смазнево",,,,"СВА 1987"
"Заринский","Голуха",,,,"СВА 1991"
"Заринский","Тягун",,,,"СВА"
"Змеиногорский","Саввушка",,,,"СВА"
"Змеиногорский","Карамышево","ФАП 1968",,,
"Змеиногорский","Барановка",,,,"СВА 1984"
"Зональный","Октябрьский","ФАП ",,,
"Зональный","Луговское","ФАП 1984",,,
"Зональный","Шубенка","ФАП 1976",,,
"Зональный","Плешково","ФАП 1958",,,
"Зональный","Мирный","ФАП 1976",,,
"Калманский","Бураново","ФАП",,,
"Каменский","Новоярки",,,,"СВА 1985"
"Каменский","Корнилово",,,,"СВА 1982"
"Ключевский","Васильчуки","ФАП 1982 муниципальная",,,
"Ключевский","Целинный","ФАП 2014",,,
"Ключевский","Северка","ФАП 1987 муниципальная",,,
"Красногорский","Березовка","ФАП 1966",,,
"Красногорский","Усть-Иша",,,"ЦОВП1961",
"Красногорский","Быстрянка",,,"ЦОВП1990",
"Краснощёковский","Карпово Второе",,,,"СВА 1992"
"Краснощёковский","Новошипуново",,,,"СВА 1975"
"Краснощёковский","Верх-Камышенка",,,,"СВА 1986"
"Краснощёковский","Харлово",,,,"СВА 1975"
"Краснощёковский","Берёзовка",,,,"СВА 1927"
"Краснощёковский","Маралиха",,,,"СВА 1974"
"Крутихинский","Волчно-Бурлинское",,,,"СВА 1970"
"Крутихинский","Долганка",,,,"СВА 1967"
"Кулундинский","Октябрьский",,,,"СВА 1983"
"Курьинский","Колывань",,,,"СВА 1910"
"Локтевский","Кировский","ФАП 1973",,,
"Локтевский","Локоть",,,,"СВА 1975"
"Локтевский","Масальский","ФАП 1985",,,
"Мамонтовский","Комсомольский","ФАП 1957",,,
"Мамонтовский","Буканское","ФАП",,,
"Мамонтовский","Корчино",,,,"СВА 1972"
"Мамонтовский","Островное","ФАП",,,
"Мамонтовский","Костин Лог",,,,"СВА 1956"
"Мамонтовский","Крестьянка",,,,"СВА"
"Немецкий национальный","Николаевка","ФАП 1982 муниципальная",,,
"Немецкий национальный","Полевое","ФАП 1976",,,
"Немецкий национальный","Протасово",,,,"СВА 1970"
"Немецкий национальный","Шумановка",,,,"СВА 1990"
"Немецкий национальный","Дегтярка","ФАП 1970",,,
"Немецкий национальный","Гришковка",,,,"СВА 1977"
"Немецкий национальный","Редкая Дубрава",,,,"СВА 1993"
"Немецкий национальный","Орлово",,,,"СВА 1979"
"Немецкий национальный","Кусак",,,,
"Немецкий национальный","Гальбштадт",,,,
"Павловский","Лебяжье",,,,"СВА 1989"
"Павловский","Сибирские Огни",,,,"СВА 1991"
"Павловский","Стуково",,,,"СВА"
"Павловский","Колыванское",,,,"СВА 1968"
"Павловский","Шахи",,,,"СВА 1970"
"Панкрушихинский","Подойниково","ФАП 1968",,,
"Первомайский","Фирсово","ФАП 1955",,,
"Первомайский","Бажево",,,,
"Первомайский","Сорочий Лог","ФАП 1971",,,
"Первомайский","Северный",,,,"СВА 1986"
"Первомайский","Логовское",,,,"СВА 1971"
"Первомайский","Сибирский",,,,"СВА 1980"
"Первомайский","Баюновские Ключи",,,,"СВА 1953"
"Петропавловский","Алексеевка",,,,
"Петропавловский","Зеленый Дол","ФАП 1980 муниципальная",,,
"Петропавловский","Камышенка",,,,"СВА 1984"
"Петропавловский","Антоньевка",,,,"СВА 1972"
"Поспелихинский","Поспелихинский",,,,"СВА 1975"
"Поспелихинский","Калмыцкие Мысы",,,,"СВА 1956"
"Поспелихинский","Клепечиха",,,,"СВА 1962"
"Поспелихинский","Николаевка",,,,"СВА 1968"
"Поспелихинский","им Мамонтова",,,,"СВА 1934"
"Ребрихинский","Усть-Мосиха",,,,"СВА 1973"
"Ребрихинский","Клочки","ФАП 1976",,,
"Ребрихинский","Белово",,,,"СВА 1988"
"Родинский","Степное",,,,"УБ 1992"
"Родинский","Мирный",,,,"СВА 1990"
"Романовский","Сидоровка",,,,"СВА 1983"
"Рубцовский","Зеленая Дубрава","ФАП 1954",,,
"Рубцовский","Ракиты","ФАП 1959",,,
"Рубцовский","Половинкино","ФАП",,,
"Рубцовский","Безрукавка","ФАП",,,
"Славгород","Знаменка","УБ 1970",,,
"Славгород","Селекционное","ФАП",,,
"Смоленский","Кировский",,,,"СВА 1961"
"Смоленский","Линевский",,,,"СВА 1978"
"Смоленский","Солоновка",,,,"СВА 1960"
"Смоленский","Точильное",,,,"СВА 1970"
"Смоленский","Новотырышкино",,,,"СВА 1979"
"Советский","Сетовка","ФАП1974",,,
"Советский","Урожайное",,,,"СВА1974"
"Советский","Красный Яр","ФАП",,,
,,1979,,,
"Советский","Шульгинка",,,,"СВА"
,,,,,1967
"Солтонский","Карабинка",,,,"СВА"
,,,,,1963
"Табунский","Алтайское",,,,
"Тальменский","Луговое",,,,"СВА"
,,,,,1977
"Тальменский","Анисимово",,,,"СВА"
,,,,,1967
"Тальменский","Новоперуново",,,,"СВА"
,,,,,1975
"Тальменский","Среднесибирский",,,,"СВА"
,,,,,1982
"Тогульский","Антипино",,,,"СВА"
,,,,,1961
"Топчихинский","Кировский",,,,"СВА"
,,,,,1990
"Топчихинский","Чистюнька",,,,"СВА"
,,,,,1976
"Топчихинский","Фунтики","ФАП",,,
,,1972,,,
"Топчихинский","Парфёново",,,,"СВА"
,,,,,1964
"Третьяковский","Екатерининское","ФАП",,,
,,1975,,,
"Третьяковский","Корболиха","ФАП",,,
,,1976,,,
"Троицкий","Гордеевский",,,,"СВА"
,,,,,1971
"Троицкий","Беловский",,,,"СВА"
,,,,,1965
"Троицкий","Заводское",,,,"СВА"
,,,,,1974
"Троицкий","Боровлянка",,,,"УБ"
,,,,,1988
"Тюменцевский","Шарчино",,,,"РБ"
,,,,,1967
"Тюменцевский","Вылково",,,,"УБ"
,,,,,1936
"Угловский","Озерно-Кузнецово",,,,"УБ"
,,,,,1970
"Усть-Калманский","Огни",,,,"СВА"
"Усть-Калманский","Чарышское",,,,"СВА"
"Усть-Калманский","Михайловка",,,,"СВА"
"Усть-Пристанский","Коробейниково",,,,"СВА 1907"
"Хабарский","Коротояк","ФАП 1976",,,
"Хабарский","Новоильинка",,,,"СВА 1964"
"Целинный","Марушка",,,,"СВА 1966"
"Целинный","Бочкари",,,,"СВА 1980"
"Целинный","Воеводское",,,,"СВА 1977"
"Чарышский","Красный Партизан","ФАП 1991",,,
"Шелаболихинский","Кучук",,,,"СВА 1989"
"Шелаболихинский","Верх-Кучук",,,,"СВА 1969"
"Шелаболихинский","Крутишка",,,,"СВА 1957"
"Шелаболихинский","Киприно",,,,"СВА 1929"
"Шипуновский","Комариха",,,,"СВА 1978"
"Шипуновский","Красный Яр",,,,"СВА 1931"
"Шипуновский","Хлопуново","ФАП 1966",,,
"Шипуновский","Тугозвоново",,,,"СВА 1966"
"Шипуновский","Горьковское",,,,"СВА"
"Шипуновский","Родино",,,,"СВА 1978"
