﻿"Анжеро-Судженский г/о","Лебедянка",,1,,
"Анжеро-Судженский г/о","Красная Горка",,,,
"Беловский м/р","Конево",1,,,
"Беловский м/р","Уроп",1,,,
"Беловский м/р","Инюшка",1,,,
"Беловский м/р","Коротково",1,,,
"Беловский м/р","Коновалово",1,,,
"Беловский м/р","Сидоренково",1,,,
"Беловский м/р","Поморцево",1,,,
"Беловский м/р","Каралда",1,,,
"Беловский м/р","Убинский",1,,,
"Беловский м/р","Заринское",1,,,
"Беловский м/р","Ивановка",1,,,
"Беловский г/о","Челухоево",,,,
"Беловский м/р","Беково",1,,,
"Беловский м/р","Снежинский",1,,,
"Беловский м/р","Вишневка",1,,,
"Беловский м/р","Каракан",1,,,
"Беловский м/р","Евтино",,,,1
"Беловский г/о","Заречное",,,,
"Гурьевский м/р","Кулебакино",1,,,
"Гурьевский м/р","Ур-Бедари",1,,,
"Ижморский м/р","Почитанка",1,,,
"Ижморский м/р","Берикуль",1,,,
"Ижморский м/р","Теплая Речка",1,,,
"Ижморский м/р","Ижморка 2-я",1,,,
"Ижморский м/р","Постниково",1,,,
"Ижморский м/р","Симбирка",,,,1
"Ижморский м/р","Святославка",,,,1
"Ижморский м/р","Колыон",,,,1
"Ижморский м/р","Красный Яр",,,,1
"Ижморский м/р","Троицкое",,,,1
"Кемеровский м/р","Усть-Хмелевка",1,,,
"Кемеровский м/р","Успенка",1,,,
"Кемеровский м/р","Черемушки",1,,,
"Кемеровский м/р","Смолино",1,,,
"Кемеровский м/р","Ленинградский",1,,,
"Кемеровский м/р","Благодатный",1,,,
"Кемеровский м/р","Камышная",1,,,
"Кемеровский м/р","Старочервово",1,,,
"Кемеровский м/р","Сухая Речка",1,,,
"Кемеровский м/р","Сухово",1,,,
"Кемеровский м/р","Силино",1,,,
"Киселёвский м/р","Верх-Чумыш",1,,,
"Крапивинский м/р","Скарюпино",1,,,
"Крапивинский м/р","Ключи",1,,,
"Крапивинский м/р","Арсеново",1,,,
"Крапивинский м/р","Междугорное",1,,,
"Крапивинский м/р","Плотниковский",1,,,
"Крапивинский м/р","Березовка",1,,,
"Крапивинский м/р","Каменный",1,,,
"Крапивинский м/р","Красные Ключи",1,,,
"Крапивинский м/р","Барачаты",0,,,1
"Крапивинский м/р","Зеленовский",1,,,
"Крапивинский м/р","Банново",1,,,
"Крапивинский м/р","Тараданово",,,,1
"Крапивинский м/р","Перехляй",1,,,
"Крапивинский м/р","Каменка",,,,1
"Крапивинский м/р","Шевели",,,,1
"Ленинск-Кузнецкий м/р","Новопокасьма",1,,,
"Ленинск-Кузнецкий м/р","Возвышенка",1,,,
"Ленинск-Кузнецкий м/р","Клейзавода",,,,
"Ленинск-Кузнецкий м/р","Худяшово",1,,,
"Ленинск-Кузнецкий м/р","Новогородец",1,,,
"Ленинск-Кузнецкий м/р","Чкаловский",1,,,
"Ленинск-Кузнецкий м/р","Мусохраново",1,,,
"Ленинск-Кузнецкий м/р","Новый",1,,,
"Ленинск-Кузнецкий м/р","Свердловский",1,,,
"Ленинск-Кузнецкий м/р","Новогеоргиевка",1,,,
"Ленинск-Кузнецкий м/р","Камышино",1,,,
"Ленинск-Кузнецкий м/р","Красноярка",1,,,
"Ленинск-Кузнецкий м/р","Ариничево",1,,,
"Ленинск-Кузнецкий м/р","Мирный",1,,,
"Ленинск-Кузнецкий м/р","Подгорное",,,"1(уч. б-ца)",
"Ленинск-Кузнецкий м/р","Егозово",1,,,
"Ленинск-Кузнецкий м/р","Восходящий",1,,,
"Мариинский м/р","Тенгулы",1,,,
"Мариинский м/р","Кирсановка",1,,,
"Мариинский м/р","Колеул",1,,,
"Мариинский м/р","Лебяжий",1,,,
"Мариинский м/р","Таежно-Михайловка",1,,,
"Мариинский м/р","Приметкино",1,,,
"Мариинский м/р","Большой Антибес",1,,,
"Мариинский м/р","Тюменево",1,,,
"Мариинский м/р","Николаевка 2-я",1,,,
"Мариинский м/р","Белогородка",1,,,
"Мариинский м/р","Малопесчанка",,,,1
"Мариинский м/р","Первомайский",1,,,
"Мариинский м/р","Пристань 2-я",1,,,
"Междуреченский г/о","Майзас",1,,,
"Междуреченский г/о","Ортон ",1,,,
"Междуреченский г/о","Теба",1,,,
"Мысковский г/о","Берензас",,,,
"Мысковский г/о","Бородино",,,,
"Новокузнецкий м/р","Баевка",1,,,
"Новокузнецкий м/р","Лыс",1,,,
"Новокузнецкий м/р","Николаевка",1,,,
"Новокузнецкий м/р","Чичербаево",1,,,
"Новокузнецкий м/р","Таргайский дом отдыха",,,,
"Новокузнецкий м/р","Славино",,,,
"Новокузнецкий м/р","Заречный",1,,,
"Новокузнецкий м/р","Березово",1,,,
"Новокузнецкий м/р","Кругленькое",1,,,
"Новокузнецкий м/р","Бедарево",1,,,
"Новокузнецкий м/р","Красная Орловка",1,,,
"Новокузнецкий м/р","Ашмарино",1,,,
"Новокузнецкий м/р","Тальжино",1,,,
"Новокузнецкий м/р","Северный",1,,,
"Новокузнецкий м/р","Терехино",1,,,
"Новокузнецкий м/р","Бенжереп 1-й",1,,,
"Новокузнецкий м/р","Сары-Чумыш",1,,,
"Новокузнецкий м/р","Ерунаково",1,,,
"Новокузнецкий м/р","Мир",1,,,
"Новокузнецкий м/р","Бунгур",1,,,
"Новокузнецкий м/р","Недорезово",1,,,
"Новокузнецкий м/р","Осиновое Плесо",,,,1
"Новокузнецкий м/р","Рассвет",1,,,
"Новокузнецкий м/р","Казанково",1,,,
"Прокопьевский м/р","Свободный",1,,,
"Прокопьевский м/р","Индустрия",1,,,
"Прокопьевский м/р","Тихоновка",1,,,
"Прокопьевский м/р","Соколово",1,,,
"Прокопьевский м/р","Кольчегиз",1,,,
"Прокопьевский м/р","Плодопитомник",1,,,
"Прокопьевский м/р","Новостройка",1,,,
"Прокопьевский м/р","Октябрьский",1,,,
"Прокопьевский м/р","Михайловка",1,,,
"Прокопьевский м/р","Лучшево",1,,,
"Прокопьевский м/р","Севск",1,,,
"Прокопьевский м/р","д. Каменный Ключ",,,,1
"Прокопьевский м/р","Шарап",1,,,
"Прокопьевский м/р","Большой Керлегеш",1,,,
"Прокопьевский м/р","Школьный",1,,,
"Прокопьевский м/р","Котино",,,,1
"Прокопьевский м/р","Бурлаки",,,,1
"Прокопьевский м/р","Ясная Поляна",1,,,
"Прокопьевский м/р","ст.Терентьевская",1,,,
"Промышленновский м/р","Иваново-Родионовский",1,,,
"Промышленновский м/р","Соревнование",1,,,
"Промышленновский м/р","Байрак",1,,,
"Промышленновский м/р","Прогресс",1,,,
"Промышленновский м/р","Труд",1,,,
"Промышленновский м/р","Голубево",1,,,
"Промышленновский м/р","Еремино",1,,,
"Промышленновский м/р","Морозово",,,1,
"Промышленновский м/р","Шуринка",1,,,
"Промышленновский м/р","Усть-Каменка",1,,,
"Промышленновский м/р","Протопопово",1,,,
"Промышленновский м/р","Озерки",1,,,
"Промышленновский м/р","Усть-Тарсьма",1,,,
"Промышленновский м/р","Лебеди",1,,,
"Промышленновский м/р","Калинкино",1,,,
"Промышленновский м/р","Абышево",1,,,
"Промышленновский м/р","Пор-Искитим",1,,,
"Промышленновский м/р","Уфимцево",1,,,
"Промышленновский м/р","Каменка",1,,,
"Промышленновский м/р","Колычево",1,,,
"Промышленновский м/р","Пьяново",1,,,
"Тайгинский г/о","Кузель",,,,
"Тайгинский г/о","Таежный",,,,
"Таштагольский м/р","Ключевой",1,,,
"Таштагольский м/р","Алтамаш",1,,,
"Таштагольский м/р","Кондома",,,,1
"Таштагольский м/р","Амзас",1,,,
"Таштагольский м/р","Калары",1,,,
"Таштагольский м/р","Усть-Кабырза",,,,1
"Таштагольский м/р","Чугунаш",1,,,
"Таштагольский м/р","Базанча",,,,1
"Тисульский м/р","Макаракский",1,,,
"Тисульский м/р","Листвянка",1,,,
"Тисульский м/р","Усть-Колба",1,,,
"Тисульский м/р","Колба",1,,,
"Тисульский м/р","Утинка",,,,
"Тисульский м/р","Серебряково",1,,,
"Тисульский м/р","Большой Барандат",,,,1
"Тисульский м/р","Куликовка",1,,,
"Тисульский м/р","Берикульский",,,,1
"Топкинский м/р","Мокроусовский",1,,,
"Топкинский м/р","Магистральный",1,,,
"Топкинский м/р","Малый Корчуган",1,,,
"Топкинский м/р","Верх-Падунский",,,1,
"Топкинский м/р","Усть-Сосново",,,1,
"Топкинский м/р","Центральный",1,,,
"Топкинский м/р","Глубокое",1,,,
"Топкинский м/р","Опарино",1,,,
"Топкинский м/р","Черемичкино",1,,,
"Топкинский м/р","Трещевский",1,,,
"Топкинский м/р","Раздолье",,,1,
"Топкинский м/р","Рассвет",1,,,
"Тяжинский м/р","Акимо-Анненка",1,,,
"Тяжинский м/р","Новопокровка",1,,,
"Тяжинский м/р","Нововосточный",1,,,
"Тяжинский м/р","Валерьяновка",1,,,
"Тяжинский м/р","Старый Урюп",1,,,
"Тяжинский м/р","Ступишино",1,,,
"Тяжинский м/р","Даниловка",,,,1
"Тяжинский м/р","Новоподзорново",,,,1
"Тяжинский м/р","Листвянка",1,,,
"Тяжинский м/р","Кубитет",,,,1
"Тяжинский м/р","Тисуль",,,,1
"Тяжинский м/р","Преображенка",1,,,
"Чебулинский м/р","Кураково",1,,,
"Чебулинский м/р","Дмитриевка",1,,,
"Чебулинский м/р","Курск-Смоленка",1,,,
"Чебулинский м/р","Алчедат",1,,,
"Чебулинский м/р","Николаевка",1,,,
"Чебулинский м/р","Усть-Чебула",1,,,
"Чебулинский м/р","Усманка",1,,,
"Юргинский м/р","Томилово",1,,,
"Юргинский м/р","Заозерный",1,,,
"Юргинский м/р","Линейный",,,,
"Юргинский м/р","Мальцево",1,,,
"Юргинский м/р","Большеямное",1,,,
"Юргинский м/р","Елгино",1,,,
"Юргинский м/р","Белянино",1,,,
"Юргинский м/р","Сарсаз",,,,
"Юргинский м/р","Речной",1,,,
"Юргинский м/р","Верх-Тайменка",1,,,
"Юргинский м/р","Пятково",1,,,
"Юргинский м/р","Зеледеево",1,,,
"Юргинский м/р","Безменово",,,,
"Юргинский м/р","Лебяжье-Асаново",1,,,
"Юргинский м/р","Зимник",1,,,
"Яйский м/р","Сергеевка",1,,,
"Яйский м/р","Ишим",1,,,
"Яйский м/р","Безлесный",1,,,
"Яйский м/р","Вознесенка",1,,,
"Яйский м/р","Турат",1,,,
"Яйский м/р","Яя-Борик",1,,,
"Яйский м/р","Марьевка",1,,,
"Яйский м/р","Судженка",1,,,
"Яйский м/р","Новониколаевка",1,,,
"Яйский м/р","Кайла",,,,1
"Яйский м/р","Улановка",,,,1
"Яшкинский м/р","Саломатово",1,,,
"Яшкинский м/р","Зырянка",1,,,
"Яшкинский м/р","Дубровка",1,,,
"Яшкинский м/р","Таловка",1,,,1
"Яшкинский м/р","Ботьево",1,,,
"Яшкинский м/р","Шахтер",1,,,
"Яшкинский м/р","Тутальская",,,,
"Яшкинский м/р","Ленинский",,,1,
"Яшкинский м/р","Красноселка",1,,,
"Яшкинский м/р","Акация",,,1,
"Яшкинский м/р","Пашково",,,,1
"Яшкинский м/р","Яшкинский",1,,,
"Беловский м/р","Менчереп",1,,,
"Беловский м/р","Новый Каракан",,,1,
"Беловский м/р","Щебзавод",1,,,
"Беловский м/р","Новобачаты",,,1,
"Беловский м/р","Пермяки",,,,1
"Беловский г/о","Грамотеино",,,,
"Гурьевский м/р","Новопестерево",,,,1
"Гурьевский м/р","Сосновка",,,,1
"Гурьевский м/р","Горскино",,,,1
"Гурьевский м/р","Раздольный",,,,1
"Гурьевский м/р","Малая Салаирка",,,"1 (поликл)",
"Гурьевский м/р","Урск",,,1,
"Калтанский г/о","Сарбала",,,1,
"Кемеровский м/р","Разведчик",,,1,
"Кемеровский м/р","Барановка",,,1,
"Кемеровский м/р","Новоискитимск",1,,,
"Кемеровский м/р","Щегловский",,,,1
"Кемеровский м/р","Мазурово",1,,,
"Кемеровский м/р","Андреевка",1,,,
"Кемеровский м/р","Мозжуха",1,,,
"Кемеровский м/р","Кузбасский",,,,1
"Кемеровский м/р","Верхотомское",1,,,
"Кемеровский м/р","Береговая",,,,1
"Крапивинский м/р","Борисово",,,,1
"Ленинск-Кузнецкий м/р","Драченино",,,,1
"Ленинск-Кузнецкий м/р","Демьяновка",1,,,
"Ленинск-Кузнецкий м/р","Чусовитино",1,,,
"Ленинск-Кузнецкий м/р","Шабаново",1,,,
"Ленинск-Кузнецкий м/р","Панфилово",1,,,
"Мариинский м/р","Благовещенка",,,,1
"Мариинский м/р","Красные Орлы",,," 1(уч. б-ца)",
"Мариинский м/р","Калининский",,,,1
"Мысковский г/о","Подобас",,,,
"Новокузнецкий м/р","Куртуково",1,,,
"Новокузнецкий м/р","Сидорово",1,,,
"Новокузнецкий м/р","Красулино",1,,,
"Новокузнецкий м/р","Тальжино",1,,,
"Новокузнецкий м/р","Загорский",1,,,
"Новокузнецкий м/р","Степной",1,,,
"Новокузнецкий м/р","Костенково",,,,1
"Новокузнецкий м/р","Елань",1,,,
"Новокузнецкий м/р","Ильинка",,,,1
"Новокузнецкий м/р","Безруково",,,1,
"Прокопьевский м/р","Карагайла",1,,,
"Прокопьевский м/р","Верх-Егос",,,,1
"Прокопьевский м/р","Большая Талда",,,,1
"Прокопьевский м/р","Новосафоновский",,,,1
"Прокопьевский м/р","Калачево",,,,1
"Промышленновский м/р","Титово",,,1,
"Промышленновский м/р","Журавлево",1,,,
"Промышленновский м/р","Васьково",1,,,
"Промышленновский м/р","Тарасово",,,,1
"Промышленновский м/р","Краснинское",,,1,
"Промышленновский м/р","Окунево",1,,,
"Промышленновский м/р","Ваганово",,,1,
"Таштагольский м/р","Спасск",,,1,
"Тисульский м/р","Тамбар",,,,1
"Тисульский м/р","Полуторник",,,,1
"Топкинский м/р","Шишино",,,1,
"Топкинский м/р","Зарубино",,,1,
"Топкинский м/р","Топки",1,,,
"Чебулинский м/р","1-й",1,,,
"Чебулинский м/р","Чумай",,,1,
"Чебулинский м/р","Усть-Серта",,,1,
"Чебулинский м/р","Новоивановский",1,,,
"Юргинский м/р","Поперечное",,,1,
"Юргинский м/р","Новороманово",,,"1(уч. б-ца)",
"Юргинский м/р","Талая",,,1,
"Юргинский м/р","Юргинский",1,,,
"Юргинский м/р","Проскоково",,,,1
"Юргинский м/р","Арлюк",,,,1
"Яйский м/р","Судженка",,,,1
"Яшкинский м/р","Пача",,,,1
"Яшкинский м/р","Литвиново",,,1,1
"Яшкинский м/р","Колмогорово",,,1,
"Яшкинский м/р","Поломошное",,,,1
"Анжеро-Судженский г/о","326 Квартал",,,,
"Беловский м/р","Новохудяково",1,,,
"Беловский м/р","Калиновка",1,,,
"Беловский м/р","Петровский",,,"Волнякова И.Н. ",
"Беловский м/р","Задубровский",1,,,
"Беловский м/р","Новодубровка",,,"Трубникова В.И.",
"Беловский м/р","Мереть",1,,,
"Беловский м/р","Заря",1,,,
"Беловский м/р","Хахалино",1,,,
"Беловский м/р","Верховская",,,"Ахмедова О.К.",
"Беловский м/р","им Ильича",1,,,
"Беловский м/р","Осиновка",,,"Андреева Н.И.",
"Беловский м/р","Бускускан",,,"Гражданкина И.Н.",
"Беловский м/р","Степной",1,,,
"Беловский м/р","Проектная",,,"Безроднева В.Г.",
"Беловский м/р","Новороссийка",1,,,
"Беловский м/р","Артышта",1,,,
"Беловский м/р","Шестаки",1,,,
"Беловский м/р","Дунай-Ключ",1,,,
"Берёзовский г/о","Станционный",,,"Соколанова В.Е.  Паршина Г.А.",
"Гурьевский м/р","Подкопенная",,,"Трусова И.Л.",
"Гурьевский м/р","Заречный",,,"Прокудина М.П.",
"Гурьевский м/р","Маслиха",1,,,
"Гурьевский м/р","Салаирский Дом Отдыха",,,"Эргашева Н.Б.",
"Гурьевский м/р","Кочкуровка",1,,,
"Гурьевский м/р","Мостовая",1,,,
"Гурьевский м/р","Печеркино",,,"Глинская И.П.",
"Гурьевский м/р","Дмитриевка",1,,,
"Гурьевский м/р","Тайгинский леспромхоз",1,,,
"Гурьевский м/р","Шанда",1,,,
"Гурьевский м/р","Чуваш-Пай",1,,,
"Гурьевский м/р","Лесной",1,,,
"Ижморский м/р","Красная Тайга",1,,,
"Ижморский м/р","Березовский",,,,
"Ижморский м/р","Летяжка",1,,,
"Ижморский м/р","Иверка",1,,,
"Ижморский м/р","Островка",1,,,
"Ижморский м/р","Нижегородка",1,,,
"Ижморский м/р","Воскресенка",1,,,
"Ижморский м/р","Новый Свет",1,,,
"Ижморский м/р","Новославянка",1,,,
"Кемеровский м/р","Заря",,,"Прошина Е.С.",
"Кемеровский м/р","Ровенский",,,"Смирнова Г.А.",
"Кемеровский м/р","Старая Балахонка",,,,
"Кемеровский м/р","Арсентьевка",,,,
"Кемеровский м/р","Воскресенка",1,,,
"Кемеровский м/р","Ляпки",,,,
"Кемеровский м/р","Солонечная",,,"Цыбулина Н.П.",
"Кемеровский м/р","Привольный",,,"Тригуб В.В.",
"Кемеровский м/р","Сосновка-2",1,,,
"Кемеровский м/р","Мамаевский",,,"Безменова О.Н.",
"Кемеровский м/р","Подъяково",,,"Аникина Е.В.",
"Кемеровский м/р","Пещерка",1,,,
"Кемеровский м/р","Буреничево",,,"Мурзина Н.А.",
"Кемеровский м/р","Тебеньковка",1,,,
"Кемеровский м/р","Журавлево",,,,
"Кемеровский м/р","Солнечный",1,,,
"Кемеровский м/р","Новая Балахонка",,,,
"Кемеровский м/р","Упоровка",1,,,
"Кемеровский м/р","Осиновка",1,,,
"Кемеровский м/р","Пугачи",,,"Геккель С. А.",
"Крапивинский м/р","Михайловский",1,,,
"Крапивинский м/р","Максимово",,,"Харитонова В. Е.",
"Крапивинский м/р","Долгополово",1,,,
"Крапивинский м/р","Новобарачаты",1,,,
"Крапивинский м/р","Кабаново",,,,
"Крапивинский м/р","Бердюгино",1,,,
"Крапивинский м/р","Поперечное",1,,,
"Крапивинский м/р","Сарапки",1,,,
"Краснобродский м/р","Дуброво",,,"Кузьмина Н.В.",
"Ленинск-Кузнецкий м/р","Горняк",,,"Подолякина З.И.",
"Ленинск-Кузнецкий м/р","Петровский",,,,
"Ленинск-Кузнецкий м/р","Семеново",1,,,
"Ленинск-Кузнецкий м/р","Орловский",1,,,
"Ленинск-Кузнецкий м/р","Русско-Урский",,,"Панкова О.Н",
"Ленинск-Кузнецкий м/р","Чесноково",,,,
"Ленинск-Кузнецкий м/р","Соколовка",1,,,
"Ленинск-Кузнецкий м/р","Ракитный",,,"Кинева  Е.Ю.",
"Ленинск-Кузнецкий м/р","Красная Горка",,,"Сумина  Т.И.",
"Ленинск-Кузнецкий м/р","Новопокровка",1,,,
"Ленинск-Кузнецкий м/р","Торопово",1,,"Кузнецова Н.Л.",
"Ленинск-Кузнецкий м/р","Хрестиновский",,,"меняется уполномоченный",
"Ленинск-Кузнецкий м/р","Покровка",1,,,
"Ленинск-Кузнецкий м/р","Солнечный",1,,,
"Ленинск-Кузнецкий м/р","Лапшиновка",,,"Подколзина ТА",
"Ленинск-Кузнецкий м/р","Трекино",1,,,
"Ленинск-Кузнецкий м/р","Родниковый",1,,,
"Ленинск-Кузнецкий м/р","Красная Поляна",1,,,
"Ленинск-Кузнецкий м/р","Ивановка",1,,,
"Ленинск-Кузнецкий м/р","Кокуй",1,,,
"Ленинск-Кузнецкий м/р","Ново-Урский",,,"Степаненко  Т.А.",
"Мариинский м/р","Куркули",1,,,
"Мариинский м/р","Кайдулы",1,,,
"Мариинский м/р","Правдинка",1,,,
"Мариинский м/р","Тундинка",1,,,
"Мариинский м/р","Туйла",1,,,
"Мариинский м/р","Петровка",1,,,
"Мариинский м/р","Константиновка",1,,,
"Мариинский м/р","Мальковка",1,,,
"Мариинский м/р","Антибесская",1,,,
"Мариинский м/р","Рубино",1,,,
"Мариинский м/р","Знаменка",1,,,
"Мариинский м/р","Камышенка",1,,,
"Мариинский м/р","Малый Антибес",1,,,
"Мариинский м/р","Раевка",1,,,
"Мариинский м/р","Обояновка",1,,,
"Мариинский м/р","Пихтовка",1,,,
"Междуреченский г/о","Трехречье",,,"Мирошниченко К.И.",
"Мысковский г/о","Чувашка",,1,,
"Новокузнецкий м/р","Черемза",,,"Григорьева Т.Я.",
"Новокузнецкий м/р","Таловая",,,"Лапшин А.Ф.",
"Новокузнецкий м/р","Красинск",,,"Земских Л.В.",
"Новокузнецкий м/р","Мутный",1,,,
"Новокузнецкий м/р","Таргай",,,"Петрова Н. А.",
"Новокузнецкий м/р","Федоровка",1,,,
"Новокузнецкий м/р","Гавриловка (Куртуковский с/с)",1,,,
"Новокузнецкий м/р","Апанас",1,,,
"Новокузнецкий м/р","Мокроусово",,,"Ракитин С.В.",
"Новокузнецкий м/р","Михайловка",1,,,
"Новокузнецкий м/р","Зеленый Луг",1,,,
"Новокузнецкий м/р","Кандалеп",1,,,
"Новокузнецкий м/р","Бенжереп 2-й",1,,,
"Новокузнецкий м/р","Чистая Грива",1,,,
"Новокузнецкий м/р","Южный",,,"Горева Т.А.",
"Новокузнецкий м/р","Староабашево",,,"Максимова Е.В.",
"Новокузнецкий м/р","Митино",1,,,
"Новокузнецкий м/р","Загадное",1,,,
"Новокузнецкий м/р","Пушкино",,,"Чиркова Л.Я.",
"Новокузнецкий м/р","Усть-Аскарлы",1,,,
"Новокузнецкий м/р","Подгорный",1,,,
"Новокузнецкий м/р","Тагарыш",,,,
"Новокузнецкий м/р","Тайлеп",1,,,
"Новокузнецкий м/р","Кульчаны",,,"Малова Г.В.",
"Новокузнецкий м/р","Анисимово",1,,,
"Новокузнецкий м/р","Успенка",1,,,
"Новокузнецкий м/р","Боровково",1,,,
"Прокопьевский м/р","Ключи",1,,,
"Прокопьевский м/р","Центральный",1,,,
"Прокопьевский м/р","Лукьяновка",1,,,
"Прокопьевский м/р","Иганино",,,"Федорова Н.С.",
"Прокопьевский м/р","Ускатский",1,,,
"Прокопьевский м/р","Малая Талда",,,"Андреянова С.А.",
"Прокопьевский м/р","Пушкино",1,,,
"Прокопьевский м/р","Тырган",,,"Юрошева Г.В.",
"Прокопьевский м/р","Инченково",1,,,
"Прокопьевский м/р","Тыхта",1,,,
"Прокопьевский м/р","Чапаевский",1,,,
"Прокопьевский м/р","Кутоново",1,,,
"Прокопьевский м/р","Маяковка",1,,,
"Прокопьевский м/р","Первомайский",1,,,
"Прокопьевский м/р","Новорождественское",1,,,
"Прокопьевский м/р","Тихоновка Терентьевская",1,,,
"Прокопьевский м/р","Смышляево",1,,,
"Промышленновский м/р","Подкопенная",,,"Нарадовская Е.А.",
"Промышленновский м/р","Калтышино",1,,,
"Промышленновский м/р","Березово",1,,,
"Промышленновский м/р","Денисовка",1,,,
"Промышленновский м/р","Цветущий",1,,,
"Промышленновский м/р","Контрольная",,,,
"Промышленновский м/р","Пушкино",1,,,
"Промышленновский м/р","Первомайский",1,,,
"Промышленновский м/р","Шипицино",,,,
"Промышленновский м/р","Ушаково",1,,,
"Промышленновский м/р","Портнягино",1,,,
"Промышленновский м/р","Пархаевка",1,,,
"Промышленновский м/р","Октябрьский",1,,,
"Промышленновский м/р","Плотниково",,,,
"Промышленновский м/р","Восход",,,,
"Тайгинский г/о","Сураново",,,,
"Таштагольский м/р","Карагол",,,"Попова Н.В.",
"Таштагольский м/р","Якунинск",,,,
"Таштагольский м/р","Новый",,,"Зинченко И.В.",
"Таштагольский м/р","Центральный",1,,,
"Таштагольский м/р","Мрассу",1,,,
"Таштагольский м/р","Килинск",1,,,
"Таштагольский м/р","Чулеш",1,,,
"Тисульский м/р","Вознесенка",1,,,
"Тисульский м/р","Кондрашка",1,,,
"Тисульский м/р","Большепичугино",1,,,
"Тисульский м/р","Большой Берчикуль",1,,,
"Тисульский м/р","Новый Берикуль",,,"Кербер Е.В.",
"Тисульский м/р","Дворниково",1,,,
"Тисульский м/р","Центральный",1,,,
"Тисульский м/р","Кайчак",1,,,
"Тисульский м/р","Третьяково",1,,,
"Тисульский м/р","Ржавчик",1,,,
"Топкинский м/р","Соломино",,,"открытие в 2018 г.",
"Топкинский м/р","Романовский",1,,,
"Топкинский м/р","Листвянка",,,"Федорова В.Н.",
"Топкинский м/р","Катково",1,,,
"Топкинский м/р","Ключевой",1,,,
"Топкинский м/р","Козлово",1,,,
"Топкинский м/р","Комсомольский",1,,,
"Топкинский м/р","Цыпино",1,,,
"Топкинский м/р","Хорошеборка",1,,,
"Топкинский м/р","Медынино",1,,,
"Топкинский м/р","Левососновский",,,,
"Топкинский м/р","Тыхта",1,,,
"Топкинский м/р","Симаново",1,,,
"Топкинский м/р","Знаменский",1,,,
"Топкинский м/р","Большой Корчуган",1,,,
"Топкинский м/р","Пинигино",1,,,
"Топкинский м/р","Терехино",1,,,
"Топкинский м/р","Бархатово",1,,,
"Топкинский м/р","Лукошкино",1,,,
"Топкинский м/р","Октябрьский",1,,,
"Тяжинский м/р","Изындаево",1,,,
"Тяжинский м/р","Новопреображенка",1,,,
"Тяжинский м/р","Бороковка",1,,,
"Тяжинский м/р","Сандайка",1,,,
"Тяжинский м/р","Чулым",1,,,
"Тяжинский м/р","Октябрьский",1,,,
"Тяжинский м/р","Новомарьинка",1,,,
"Тяжинский м/р","Борисоглебское",1,,,
"Тяжинский м/р","Старый Тяжин",1,,,
"Тяжинский м/р","Георгиевка",1,,,
"Тяжинский м/р","Малопичугино",1,,,
"Тяжинский м/р","Тяжино-Вершинка",1,,,
"Чебулинский м/р","Орлово-Розово",1,,,
"Чебулинский м/р","Ивановка",,,"Харина М.А.",
"Чебулинский м/р","Новоказанка",1,,,
"Чебулинский м/р","Покровка",1,,,
"Чебулинский м/р","Карачарово",,,"Смолянинова В.Н.",
"Чебулинский м/р","Шестаково",1,,,
"Чебулинский м/р","Михайловка",1,,,
"Юргинский м/р","Милютино",,,"Малыгина Н.Б.",
"Юргинский м/р","Приречье",1,,,
"Юргинский м/р","Любаровка",1,,,
"Юргинский м/р","Митрофаново",,,"Шомшин В.М.",
"Юргинский м/р","Таскаево",,,"Канащенко О.В.",
"Юргинский м/р","Зеленая Горка",,,"Савицкая Н.А.",
"Юргинский м/р","Филоново",,,"Соломатина Т.М.",
"Юргинский м/р","Копылово",1,,,
"Юргинский м/р","Старый Шалай",1,,,
"Юргинский м/р","Кленовка",,,"Гришечкина В.П.",
"Юргинский м/р","Макурино",1,,,
"Юргинский м/р","Сокольники",1,,,
"Юргинский м/р","Варюхино",1,,,
"Яйский м\р","Воскресенка (Суровка)",,,"Сусоева Н.В.",
"Яйский м\р","Арышево",,,"Муковникова Е.В.",
"Яйский м\р","Майский",1,,,
"Яйский м\р","Новостройка",1,,,
"Яйский м\р","Ольговка",1,,,
"Яйский м\р","Емельяновка",1,,,
"Яйский м\р","Бекет",1,,,
"Яйский м\р","Данковка",1,,,
"Яшкинский м\р","Тутальский Санаторий",,,,
"Яшкинский м\р","Юрты-Константиновы",1,,,
"Яшкинский м\р","Октябрьский",1,,,
"Яшкинский м\р","Корчуганово",1,,,
"Яшкинский м\р","Кулаково",1,,,
"Яшкинский м\р","Морковкино",1,,,
"Яшкинский м\р","Мохово",1,,,
"Яшкинский м\р","Литвиново",,,"Осинская М. Т.",
"Яшкинский м\р","Нижнеяшкино",1,,,
"Яшкинский м\р","Власково",1,,,
