﻿"ГО Воркута",,,,
"пст Елецкий","ФАП (находится в безвозмездном пользовании) договор № 25 от 06.12.2017г.",,,
"пст Сивомаскинский","ФАП (находится в безвозмездном пользовании) договор № 24 от 12.04.2016г.",,,
"ГО Инта",,,,
"с. Петрунь","ФАП/ 1975 года постройки деревянное здание барачного типа отопление центральное нет канализации и водоснабжения арендованное помещение ",,,
"пст. Абезь","ФАП/ 1977 года постройки кирпичное здание  арендованное помещение школы",,,
"пст. Юсьтыдор","ФАП/ 1977 г.п.  жилое кирпичное здание с отдельным входом арендуемое помещение ",,,
"ГО Сыктывкар",,,,
"поселок Выльтыдор","ФАП / 1949 г.п.",,,
"МР Корткеросский",,,,
"пст. Намск","ФАП/ 1972 г.п.",,,
"пст. Подтыбок","ВА / 1955 г.п.",,,
"пст. Приозерный","ФАП / 1963 г.п.",,,
"пст. Усть-Лэкчим","ФАП / 2007 г.п.",,,
"с. Богородск","ВА / 1926 г.п.",,,
"с. Большелуг","ФАП / 1913 г.п.",,,
"пст. Визябож","ФАП / 1976 г.п.",,,
"с. Маджа","ФАП / 2007 г.п.",,,
"с. Мордино","ВА / 1969 г.п.",,,
"с. Вомын","ФАП / 1989 г.п.",,,
"с. Небдино","ФАП / 1987 г.п.",,,
"пст. Аджером","ФАП (в здании ДДУ)",,,
"с. Подъельск","ВА / 1910 г.п.",,,
"МР Сыктывдинский",,,,
"д. Парчег* ","* ФАПа нет; население д. Парчег закреплено за Зеленецкой врачебной амбулаторией которая находится в 6 км от Парчега. В Парчеге есть ДХ",,"ДХ",
"пст. Яснэг","ВА / 2017 г.п.",,,
"с. Лэзым","ФАП с.Лэзым 1918 г.п.",,,
"пст. Гарьинский","обслуживание в Пажгинской ВА / 2008 г.п.",,,
"д. Гарья",,,,
"с. Палевицы","ВА",,,
"с. Часово","ФАП с.Часово 1988 г.п.",,,
"с. Ыб","ФАП с.Ыб 2014 г.п.",,,
"с. Шошка","ФАП с.Шошка 1976 г.п.",,,
"МР Удорский",,,,
"с.Важгорт","УБ / 1959 г.п.",,,
"п. Ёдва","ФАП / 2015 г.п.",,,
"МР Койгородский",,,,
"с. Грива","ФАП / 2007 г.п.",,,
"пст.Подзь","ВА / 1960 г.п.",,,
"пст. Кажым","ВА / 1964 г.п.",,,
"МР Княжпогостский",,,,
"с. Серегово","ФАП / 1984 г.п.",,,
"пст Тракт ","ВА / 2011 г.п. (с 01.01.2018 - ФАП)",,,
"пст Чиньяворык","ФАП / 1977 г.п.",,,
"МР Сысольский",,,,
"с. Визинга д. Горьковская","ФАП / 1981 г.п.",,,
"с. Куниб","ФАП / н/д безвозмездное пользование)",,,
"пст. Бортом","ФАП / 1992 г.п.",,,
"пст. Визиндор","ФАП / 1990 г.п.",,,
"с. Куратово д. Заречное","ФАП /2014",,,
"пст. Шугрэм","ФАП / 2008 г.п.",,,
"с. Межадор","ФАП /1991 г.п. (цокольный этаж здания сельской администрации)",,,
"с. Пыелдино д. бортом","ФАП/ (приспособленное здание печь)",,,
"с. Чухлэм","ФАП / 1995 г.п. (приспособленные помещения) ",,,
"с. Куратово","ВА / 1999 г.п.",,,
"п. Заозерье","ВА / 2014 г.п.",,,
"ГО Ухта",,,,
"пгт. Боровой","ВА / 1992 г.п.",,,
"пст.Седью","ВА / здание 1989 г.п. безвозмездное пользование помещениями",,,
"МР Сосногорск",,,,
"пст. Поляна","ФАП / 2016 г.п.",,,
"д. Пожня","ФАП / 2008 г.п.",,,
"пст. Керки","ФАП / 2008 г.п.",,,
"пст. Малая Пера","ФАП / 1971 г.п.",,,
"пст. Ираель","ФАП / 1950 г.п.",,,
"пст. Верхнеижемский","ФАП / 1984 г.п.",,,
"ГО Вуктыл ",,,,
"с. Подчерье","АВОП / 1974 г.п.",,,
"МР Ижемский ",,,,
"п.Том","УБ / 1973 г.п.","нет",,
"д.Картаель","ФАП / 1970 г.п.","нет",,
"д.Мошъюга","ФАП / 1987 г.п.","нет",,
"д.Гам","ФАП / 1986 г.п.","нет",,
"д.Бакур","ФАП / 1988 г.п.","нет",,
"д.Варыш","нет ФАП прикреплен к ФАП д.Бакур","нет",,
"с.Краснобор","ВА / 1918 г.п.","нет",,
"д.Диюр","ФАП / 1980 г.п.","нет",,
"д.Вертеп","ФАП / 1980 г.п.","нет",,
"д.Кельчиюр","ФАП / 1970 г.п.","нет",,
"д.Усть-Ижма","ФАП /  2014 г.п.","нет",,
"с.Брыкаланск","ФАП / 1968 г.п.","нет",,
"с.Няшабож","ФАП / 1995 г.п.","нет",,
"с.Кипиево","ФАП /  2014 г.п.","нет",,
,,,,
"п. Чикшино","ФАП / 1988 г.п.",,,
"пст. Луговой","ФАП / 1965 г.п.",,,
"пст. Набережный","ФАП / 1966 г.п.",,,
"пст. Озерный","ФАП / 1985 г.п.",,,
"пст. Талый","ФАП / 1983 г.п.",,,
"МР Троицко-Печорский",,,,
"пст. Комсомольск-на-Печоре","ФАП / 1963 г.п.",,,
"пст. Мылва","ФАП / 1976 г.п.",,,
"пст. Нижняя Омра","ФАП / типовой /                   2015 г.п.",,,
"пст. Приуральский","ФАП / 1976 г.п.",,,
"пст. Якша","ФАП / 1993 г.п.",,,
"с. Усть-Илыч","ФАП / типовой /                   2015 г.п.",,,
"МР Усть-Цилемский",,,,
"д.Карпушевка","ФАП /  2008 г.п.",,,
"с.Коровий  Ручей","ФАП /  2008 г.п.",,,
"д.Хабариха","ФАП / 1983 г.п.",,,
"с.Окунев Нос","ФАП /  2008 г.п.",,,
"с.Замежное","ВА /  1959 г.п.",,,
"с. Трусово","ВА /  1960 г.п.",,,
"пст.Новый Бор","УБ / 1969 г.п.",,,
,,,,
"с. Колва","ФАП / 1995 г.п.",,,
"д. Новикбож","ФАП / 2014 г.п.",,,
"с. Усть-Лыжа","ФАП / 1985 г.п.",,,
"с. Щельябож","ВА / 1989 г.п.",,,
"д. Денисовка","ФАП / 2013 г.п.",,,
"д. Захарвань","ФАП / 2011 г.п.",,,
,,,,
"пст Донаель","ФАП / 2016 г.п.",,,
"пст Илья Шор","ФАП / 1967 г.п. (в здании админ.поселения",,,
"пст Мадмас","ВА / 1975 г.п.",,,
"пст Студенец","ФАП / 2016 г.п.",,,
"с. Кожмудор","АВОП / 2008 г.п.",,,
"пст.Казлук","ФАП / 2007 г.п. ",,,
"с. Усть-Вымь","АВОП / 1904 г.п.",,,
"МР Усть-Куломский",,,,
"с.Усть-Нем","УБ / 1993 г.п.",,,
"пст.Тимшер","УБ / 2008 г.п.",,,
"с.Керчомъя","УБ / 1910 г.п.",,,
"с.Руч","АВОП / 1985 г.п.",,,
"с.Пожег","АВОП / 1950 г.п.",,,
"с.Дон","ФАП / 1969 г.п.",,,
"пст.Паспом","ФАП / 2008 г.п.",,,
"пст.Смолянка","ФАП / 1965 г.п.",,,
"д.Пожегдин","ФАП / 1989 г.п.",,,
"с.Деревянск","ФАП / 2008 г.п.",,,
,"АВОП / 1964 г.п.",,,
"с.Нижний Воч","ФАП / 1990 г.п.",,,
"с.Мыелдино","ФАП / 1993 г.п.",,,
"пст. Озъяг","ФАП / 1958 г.п.",,,
"пст. В.Ярашъю","ФАП / 1952 г.п.",,,
"д.Скородум","ФАП / 1960 г.п.",,,
"пст Диасеръя","ФАП / 2014 г.п.",,,
"пст. Ягкедж","ФАП / 1980 г.п.",,,
"МР Прилузский",,,,
"поселок Вухтым ","ВА / 1990 г.п.",,,
"посёлок  Кыддзявидь ","ФАП / 2014 г.п.",,,
"село Лойма","ВА / 2003 г.п.",,,
"село Ношуль ","ВА / 1997 г.п.",,,
"село Спаспоруб ","ВА / 2012 г.п.",,,
"село Черемуховка ","ФАП с. Черемуховка / 1994 г.п.",,,
"поселок СХТ (Черёмуховка)","ФАП СХТ / 1978 г.п.",,,
" село Черныш ","ФАП / 1991 г.п.",,,
" деревня Беляевская","нет ФАПа деревня в составе с. Объячево до ЦРБ 3 км ",,,
"деревня Загарья","нет ФАПа деревня в составе с. Объячево до ЦРБ 4 км ",,,
"деревня Калининская ","ФАП / 2007 г.п.",,,
"ГО Воркута",,,,
"пгт. Заполярный г. Воркута ",,,,"ВА пгт. Заполярный / здание 1989 года постройки (арендуемое здание)"
"МР Корткеросский",,,,
"с. Нившера",,,,"ВА / 1978 г.п."
"МР Сыктывдинский",,,,
"с. Пажга",,,,"ВА / 2008 года постройки"
"МР Удорский",,,,
"п. Междуреченск",,,,"ВА / 1975 г.п. "
"МР Княжпогостский",,,,
"м. Ачим г. Емва","ФАП / 2017 г.п.",,,
"МР Сосногорск",,,,
"пст. Усть-Ухта","ФАП / 1984 г.п.",,,
"пгт. Войвож",,,,"ВА / 1976 г.п."
"ГО Вуктыл ",,,,
"с. Дутово",,,,"АВОП / 1957 г.п."
"МР Ижемский ",,,,
"с. Мохча",,,,"АВОП / 1925 г.п."
"с. Сизябск","ФАП / 1988 г.п.",,,
"МР Печора ",,,,
"пгт. Путеец","ФАП / 1990 г.п.",,,
"пгт.Изъяю","ФАП / 1980 г.п.",,,
"пст. Каджером",,,,"УБ / 1988 г.п."
"ГО Усинск ",,,,
"п.г.т. Парма","ФАП / 1992 г.п.",,,
"с. Усть-Уса",,,,"УБ / 1997 г.п."
"с. Мутный Материк",,,,"УБ / 1970 г.п."
"МР Усть-Куломский",,,,
"пст.Югыдъяг",,,,"УБ / 1995 г.п."
"пст.Зимстан",,,,"УБ / 1981 г.п."
"пст.Кебанъель",,,,"ВА / 1976 г.п."
"ГО Инта",,,,
"с. Адзьвавом","ФАП/ 1982 года постройки деревянное здание отопление печное нет канализации и водоснабжения  (арендованное помещение здание бывшего детского сада)",,,
"д. Абезь","ФАП/ 1958 года постройки деревянное здание барачного типа нет канализации и водоснабжения отопление печное (арендованное помещение) ",,,
"с. Косьювом","ФАП/ 1970 года постройки  карпичное здание центральное отопление канализация холодное водоснобжение (арендованное помещение здание детского сада) ",,,
"ГО Сыктывкар",,,,
"пст. Трехозерка","ФАП / 2010 г.п.",,,
"с.Озел","ФАП / н/д",,,
"МР Корткеросский",,,,
"д. Важкурья","ФАП /  1961 год постройки",,,
"д. Сюзяыб","ФАП; 1900 года постройки",,,
"д. Троицк","ФАП; 1972 год постройки",,,
"д. Выльыб","ФАП; 1991 год постройки",,,
"с. Додзь","ФАП; 1900 год постройки",,,
"пст. Уръель","ФАП; 1981 год постройки",,,
"пст Веселовка","ФАП; 1962 год постройки",,,
"д. Алексеевка"," ФАП; приспособленное здание - баня",,,
"с Пезмег","ФАП; 1965 год постройки",,,
"с. Позтыкерес","ФАП; 1980 год постройки",,,
"с. Керес","ФАП; 2015 год постройки",,,
"МР Сыктывдинский",,,,
"пст.Мандач","ФАП пст.Мандач / 1951 г.п.",,,
"д.Койтыбож","Население указанных деревень обращается в Зеленецкую врачебную амбулаторию",,,
"д.Савапиян",,,,
"д.Ивановка",,,,
"д.Сотчемвыв",,,,
"с.Слудка","ФАП / 1973 г.п.",,,
"д.Красная","ФАП / 1960 г.п.",,,
"д.Малая Слуда","ФАП / 2014 г.п.",,,
"д.Захарово","ФАП / 1990 г.п.",,,
"МР Удорский",,,,
"с.Глотово"," ФАП / 2000 г.п.",,,
"д. Разгорт"," ФАП / 2006 г.п.",,,
"с. Большая Пысса"," ВА/ 1990 г.п.",,,
"с. Чупрово"," ФАП / 1955 г.п.",,,
"с.Ёртом","ФАП / 1976 г.п.",,,
"п. Солнечный","ФАП / 2001 г.п.",,,
"с. Селиб","ФАП / 1977 г.п.",,,
"с. Буткан","ФАП / 2014 г.п.",,,
"с. Чернутьево","ФАП / 1977 г.п.",,,
"п. Чим"," ФАП / 1972 г.п.",,,
"п. Вожский","ФАП / 1994 г.п.",,,
"МР Койгородский",,,,
"с. Ужга","ФАП (арендуемые помещения)",,,
"пст.  Вежъю","ФАП / 1962 г.п.",,,
"пст.  Седтыдор","ФАП / 1984 г.п.",,,
"пст.  Нючпас","ФАП / 1949 г.п.",,,
"пст.  Койдин (м. Разъезд)","ФАП / 1953 г.п.",,,
"пст. Кузьёль"," ФАП / 1997 г.п.",,,
"пст.  Зимовка","ФАП / 1988 г.п.",,,
"МР Княжпогостский",,,,
"пст Иоссер ","ФАП / 1969 г.п.",,,
"с. Княжпогост ","ФАП / 1986 г.п.",,,
"пстЛяли","ФАП / 2014 г.п.",,,
"пст Мещура","ФАП / 1957 г.п.",,,
"пст Ракпас","ФАП / 1986 г.п.",,,
"с. Турья","ФАП / 1979 г.п.",,,
"с. Шошка ","ФАП / 1982 г.п.",,,
"МР Сысольский",,,,
"с. Гагшор","ФАП / 2008 г.п.",,,
"п. Ельбаза"," ФАП / 1995 г.п. (в здании Почты России аренда)",,,
"пст. Исанево","ФАП / 1988 г.п.",,,
"с. Палауз","ФАП / 2010 г.п. (аренда в здании МДДУ)",,,
"с. Пыелдино (Вичкодор)","ФАП / 1982 г.п. ",,,
"с. Вотча","ФАП / 2008 г.п.",,,
"ГО Ухта",,,,
"д. Кедвавом","ФАП / 1930 г.п.",,,
"пст. Кэмдин","ФАП / 1936 г.п.",,,
"МР Сосногорск",,,,
"д. Порожск","ФАП / 1963 г.п.",,,
"пст. Вис","ФАП / 2016 г.п.",,,
"МР Вуктыл ",,,,
"п. Лемтыбож","ФАП / 1990 г.п.",,,
"п. Лёмты","ФАП / 1977 г.п.",,,
"МР Ижемский ",,,,
"д.Ласта","ФАП / 1891 г.п.",,,
"п.Койю","ФАП / 1986 г.п.",,,
"д.Ыргеншар","ФАП / 1953 г.п.",,,
"д.Большое Галово","ФАП / 1982 г.п.",,,
"д.Малое Галово","ФАП / 1978 г.п.",,,
"д.Чика","ФАП / 1988 г.п.",,,
"д.Чаркабож","ФАП / 1981 г.п.",,,
"д.Константиновка","ФАП нет; население прикреплено к ГБУЗ РК «Ижемская ЦРБ» ",,,
"МР Печора ",,,,
"пст. Кедровый Шор","ФАП / 1991 г.п.",,,
"д. Соколово","ФАП / 2007 г.п.",,,
"д. Даниловка","ФАП / 1960 г.п.",,,
"д. Конец Бор","ФАП / 1964 г.п.",,,
"пст. Зеленоборск","ФАП / 1993 г.п.",,,
"с. Приуральское","ФАП / 1981 г.п.",,,
"пст. Косью","ФАП / 1990 г.п.",,,
"д. Усть-Кожва","ФАП / 1959 г.п.",,,
"пст. Красный Яг","ФАП / 1989 г.п.",,,
"пст. Сыня","ФАП / 1984 г.п.",,,
"МР Троицко-Печорский",,,,
"пст. Знаменка ","ФАП / 1960 г.п.",,,
"пст. Митрофан-Дикост","ФАП / 1982 г.п.",,,
"пст. Белый Бор","ФАП / 1958 г.п.",,,
"пст. Русаново","ФАП / типовой / 2015 г.п.",,,
"с. Покча","ФАП / типовой / 2009 г.п.",,,
"пст. Палью","ФАПа нет; население обслуживается акушеркой ФАП с. Усть-Илыч которая постоянно проживает в Палью",,,
"д. Еремеево","ФАП / 1985 г.п. (здание клуба)",,,
"МР Усть-Цилемский",,,,
"д.Нерица","ФАП / 1976 г.п.",,,
"п.Синегорье","ФАП / 2014 г.п.",,,
"д.Сергеево -Щелье","ФАП / 1974 г.п.",,,
"с.Уег","ФАП / 1978 г.п.",,,
"с.Среднее Бугаево","ФАП / 2014 г.п.",,,
"д.Загривочная","ФАП / 1986 г.п.",,,
"д.Скитская","ФАП / 1965 г.п.",,,
"д.Степановская","ФАП / 1998 г.п.",,,
"д.Рочево","ФАП / 1989 г.п.",,,
"д.Филиппово","ФАП / 2008 г.п.",,,
"пст.Медвежка","ФАП / 1960 г.п.",,,
"с.Ермица","ФАП / 1966 г.п.",,,
"пст.Харьяга","ФАП / 1934 г.п.",,,
"ГО Усинск ",,,,
"п.Усадор","ФАП / 1988 г.п.",,,
"д. Акись","ФАП / 1989 г.п.",,,
"МР Усть-Вымский",,,,
"с Гам","ФАП / 1974 г.п. (нах. в админ. здании)",,,
"д. Лыаты","ФАП / 1967 г.п. (здание приспособл.)",,,
"д Туискерес","ФАП / 1979 г.п. (здание бывшей школы)",,,
"с. Межег","ФАП / 2000 г.п.",,,
"пст Черный Яр","нет ФАПа в 5 км ФАП д. Оквад",,,
"МР Усть-Куломский",,,,
"с.Носим","ФАП / 1976 г.п.",,,
"пст. Шеръяг","ФАП / 1984 г.п.",,,
"д.Жежим","ФАП / 1981 г.п.",,,
"пст.Белоборск","ФАП / 1995 г.п.",,,
"д. Кекур","ФАП / 2006 г.п.",,,
"д.Великополье","ФАП / 1967 г.п.",,,
"пст. Логинъяг","ФАП / 1954 г.п.",,,
"д.Верхний Воч","ФАП / 1989 г.п.",,,
"с.Дзель","ФАП / 1980 г.п.",,,
"пст.Лопъювад","ФАП / 2014 г.п.",,,
"д.Лебяжск","ФАП / 1991 г.п.",,,
"с.Парч","ФАП / 1965 г.п.",,,
"с.Аныб","ФАП / 1966 г.п.",,,
"пст. Ульяново","ФАП / 1970 г.п.",,,
"с. Кужба","ФАП / 1985 г.п.",,,
"пст. Н.Ярашью","ФАП / 1950 г.п.",,,
"д. Бадъельск","ФАП / 2006 г.п.",,,
"д. Кырныша","ФАП / 1932 г.п.",,,
"с.Вольдино","ФАП / 1956 г.п.",,,
"д.Пузла","ФАП / 2008 г.п.",,,
"д.М. Кужба","ФАП / 1988 г.п.",,,
"д.Сордйыв","нет ФАПа",,"ДХ; Бизина Елизавета Геннадьевна 89121185714",
"д.Вомынбож","нет ФАПа",,"ДХ; закреплено за Пожегодской АВОП 88213798636 ",
"МР Прилузский",,,,
" пст.Ваймес ","ФАП / 1968 г.п.",,,
"село Верхолузье ","ФАП / 1983 г.п.",,,
"деревня Оньмесь ","ФАП / 1968 г.п.",,,
"село  Гурьевка ","ФАП / 2014 г.п.",,,
"деревня  Корольки ","нет ФАПа деревня входит в состав с. Гурьевка где есть ФАП",,,
"деревня  Березовка ","нет ФАПа деревня входит в состав с. Гурьевка где есть ФАП",,,
"деревня Талица ","ФАП / 1981 г.п.",,,
"село  Занулье ","ФАП / 1988 г.п.",,,
"деревня Галактионовская  ","нет ФАПа в составе с Лойма; до ВА 5 км ",,,
"посёлок Коржинский","ФАП / 1987 г.п.",,,
"деревня Тарасовская","нет ФАПа деревня в составе с Лойма; до ВА 3 км",,,
"село  Мутница","ФАП / 1992 г.п.",,,
"посёлок Гуляшор ","ФАП / 2014 г.п.",,,
"посёлок Орысь  ","ФАП / 1991 г.п.",,,
"посёлок Чекша ","ФАП / 1983 г.п.",,,
"село Прокопьевка ","ФАП / 2000 г.п. (вакансия ф-ра)",,,
"село Слудка ","ФАП /1986 г.п.",,,
"поселок Якуньель  ","ФАП / 2014 г.п.",,,
"деревня  Урнышевская",,,,
"поселок Пожемаяг ","ФАП / 1989 г.п.",,,
"посёлок Усть-Лопью ","ФАП / 1980 г.п.",,,
"село Читаево","ФАП / 1994 г.п.",,,
"деревня Ожиндор",,,,
"деревня Остаповская",,,,
"деревня Паневская",,,,
