﻿"Ахтубинский район",,,,,
" с. Успенка ",0,"ФАП 1973",,,
,,"ФАП 1984",,,
,,,,,
" с. Пологое Займище ",0,"ФАП аренда в здании сельсовета",,,
,,,,,
,,,,,
" с. Батаевка ",0,"ФАП 2013",,,
,,,,,
,,,,,
" с. Садовое ",0,"ФАП",,,
" с. Сокрутовка ",0,"ФАП 1937",,,
,,,,,
,,,,,
" с. Удачное ",0,"ФАП 1910",,,
,,,,,
,,,,,
" с. Пироговка ",0,"ФАП 1917",,,
,,,,,
,,,,,
"Володарский район",,,,,
" п. Трубный ",,"ФАП",,,
,,"неизв.",,,
,,,,,
" п. Костюбе ",,"ФАП",,,
,,1989,,,
,,,,,
" с. Кошеванка ",2,,,,
" п. Камардан ",,"ФАП",,,
,,1988,,,
,,,,,
" с. Болдырево ",5,,,,
" п. Винный ",,"ФАП",,,
,,1984,,,
,,,,,
" с. Калинино ",,"ФАП",,,
,,1965,,,
,,,,,
" с. Лебяжье ",,"ФАП",,,
,,"неизв.",,,
,,,,,
" п. Паромный ",1,,,,
" с. Разбугорье ",,"ФАП",,,
,,1986,,,
,,,,,
" с. Тюрино ",,"ФАП",,,
,,1983,,,
,,,,,
" с. ШаганоКондаковка ",,"ФАП",,,
,,1979,,,
,,,,,
" с. Ямное ",,"ФАП",,,
,,1981,,,
,,,,,
" с. Крутое ",,"ФАП",,,
,,1975,,,
,,,,,
" с. Нововасильево ",,"ФАП",,,
,,1906,,,
,,,,,
" с. Яблонка ",,"ФАП",,,
,,1973,,,
,,,,,
" с. Сахма ",5,,,,
" с. Нижняя Султановка ",,"ФАП",,,
,,2005,,,
,,,,,
" с. Тулугановка ",,"ФАП",,,
,,1972,,,
,,,,,
" с. Новый Рычан ",,"ФАП",,,
,,1986,,,
,,,,,
" с. Сорочье ",,"ФАП",,,
,,1972,,,
,,,,,
"Енотаевский район",,,,,
"с. Владимировка ",0,"ФАП 1987",,,
,,,,,
,,,,,
"с. Ивановка ",0,"ФАП 2011",,,
,,,,,
,,,,,
"с. Ветлянка ",0,"ФАП 1917",,,
,,,,,
,,,,,
"с. Грачи",0,"ФАП 1961",,,
,,,,,
,,,,,
"с. Федоровка ",12,"ОВОП 1980",,,
,,,,,
,,,,,
"с. Косика ",0,"ФАП 1987",,,
,,,,,
,,,,,
"с. Сероглазка",0,"ФАП 1980",,,
,,,,,
,,,,,
"с. Ленино ",0,"ФАП 1968",,,
,,,,,
,,,,,
"п. Новострой",0,"ФАП 1987",,,
,,,,,
,,,,,
"Икрянинский район",,,,,
" с. Алгаза ",,"ФАП 2006г.п.",,,
,,,,,
,,,,,
" п. им. Анатолия Зверева ",,"ФАП 1988г.п.",,,
,,,,,
,,,,,
" с. Восточное ",,"ФАП 1984г.п.",,,
,,,,,
,,,,,
" п. СтароВолжский ",,"ФАП 1969г.п.",,,
,,,,,
,,,,,
" с. Зюзино ",,"ФАП 2015г.п.",,,
,,,,,
,,,,,
" с. Маячное ",,"ООВП 2007г.п.",,,
,,,,,
,,,,,
" с. Бекетовка ",,"ФАП 1939г.п.",,,
,,,,,
,,,,,
" с. Ямное ",,"ФАП 1967г.п.",,,
,,,,,
,,,,,
" п. Товарный ",,"ФАП 1960г.п.",,,
,,,,,
,,,,,
" с. НовоБулгары ",,"ФАП 1986г.п.",,,
,,,,,
,,,,,
" с. Озерное ",,"ФАП 1963г.п.",,,
,,,,,
,,,,,
" с. Хмелевое ",,"ФАП 1964г.п.",,,
,,,,,
,,,,,
"с. Оранжереи (Образцовое)",,"ФАП 2002г.п.",,,
,,,,,
,,,,,
" с. Седлистое ",,"ФАП 2018г.п.",,,
,,,,,
,,,,,
" с. Сергиевка п. Троицкий ",,"ФАП 1917г.п.",,,
,,,,,
,,,,,
" с. Федоровка ",,"ООВП 1988г.п.",,,
,,,,,
,,,,,
" с. Ниновка ",3,,,,
" с. Чулпан ",,"ФАП 1980г.п.",,,
,,,,,
,,,,,
"Камызякский район",,,,,
" с. ЖанАул ",,"ФАП 1980г.",,,
" с. Хмелевка ",,"ФАП 1979г.",,,
" с. Парыгино ",,"ФАП 1970г.",,,
" с. Караульное ",,"ФАП  1971г",,,
" с. Затон ",,"ФАП 1980г.",,,
" с. Лебяжье ",,"ФАП 1990г.",,,
" с. Комаровка ",,"ФАП 1963г.",,,
" с. Грушево ",,"ФАП 1981г.",,,
" с. Гандурино  ",,"ФАП 1970г.",,,
" с. Застенка ",,"ФАП 1990г.",,,
" с. Бирючек ",,"ФАП 1916г.",,,
" с. Чапаево ",,"ФАП 1905г.",,,
" с. Увары ",,"ФАП 1990г.",,,
"Красноярский район",,,,,
" п. Вишневый ",0,"ФАП",,,
,,"2016г",,,
,,,,,
" п. Топал ",0,"ФАП",,,
,,"2007г",,,
,,,,,
" п. Досанг ",0,"ФАП",,,
,,2006,,,
,,,,,
" п. Тальниковый ",5,,,,
" с. Джанай ",0,"ФАП",,,
,,"2017г",,,
,,,,,
" с. ЯсынСокан ",0,"ФАП",,,
,,"1990г",,,
,,,,,
" с. Караозек ",0,"ФАП",,,
,,"1973г",,,
,,,,,
" с. Маячное ",3,,,,
" с. Кривой Бузан ",0,"ФАП",,,
,,"1976г",,,
,,,,,
" п. Пушкино ",1,,,,
" с. Бакланье ",0,"ФАП",,,
,,"2000г",,,
,,,,,
" с. Малый Арал ",0,"ФАП",,,
,,"1997г",,,
,,,,,
" с. Сеитовка ",0,"КВОП",,,
,,"1985г",,,
,,,,,
" п. Белячий ",3,,,,
" п. Бузанпристань ",4,"ФАП",,,
,,"2016г",,,
,,,,,
"Лиманский район",,,,,
" с. Бирючья Коса ",0,"ВА ОВОП",,,
,,,,,
,,,,,
" с. Бударино ",0,"1993 ФАП","1 ",,
,,,,,
,,,,,
" с. Камышово ",0,"1952 ФАП",,,
,,,,,
,,,,,
" с. Кряжевое ",0,"1988 ФАП",,,
,,,,,
,,,,,
" с. Песчаное ",0,"2007 ФАП",,,
,,,,,
,,,,,
" с. Новогеоргиевск ",15," "," ",,
" с. Проточное ",0,"1980 ФАП"," 1",,
,,,,,
,,,,,
"Наримановский район",,,,,
"с. Тулугановка",0,"ФАП 2013",,,
,,,,,
,,,,,
"п. Караагаш",0,"ФАП  1958",,,
,,,,,
,,,,,
"с. Барановка",0,"ВА КВОП 1959",,,
,,,,,
,,,,,
"с. Петропавловка",4,"ФАП 1900",,,
,,,,,
,,,,,
"с. Верхнелебяжье",0,"ФАП 1980",,,
,,,,,
,,,,,
"с. Курченко",0,"ФАП 1991",,,
,,,,,
,,,,,
"с. Линейное",89,"ВА КВОП 1906",,,
,,,,,
,,,,,
"с. Туркменка",5,"ФАП 1990",,,
"п. жд.ст.Линейная",1,,,,
"п. Тинаки2",0," ФАП с. Рассвет",,,
"п. Пригородный",3,,,,
"п. Мирный",0,"ФАП 1995",,,
,,,,,
,,,,,
"с. Новокучергановка",0,"ФАП",,,
,,,,,
,,,,,
"Приволжский район",,,,,
" п. Бушма ",3,,,,
" с. Водяновка ",0,"ФАП",,,
,,1979,,,
,,,,,
" п. Начало ",0,"ФАП",,,
,,2016,,,
,,,,,
" п. Садовый ",35,,,,
" с. Яманцуг ",6,,,,
" п. Стеклозавода ",0,"ФАП",,,
,,1965,,,
,,,,,
" п. Ассадулаево ",4,"ФАП",,,
,,"2018 ",,,
" с. Фунтово2 ",2,,,,
" с. Атал ",6,,,,
" п. Нартовский ",6,,,,
"Харабалинский район",,,,,
"п. Сероглазово",0,"ФАП",,,
,,,,,
,,,,,
"п. Чапчачи",0,"ФАП 1954",,,
,,,,,
,,,,,
"с. Речное",0,"ФАП 1981",,,
,,,,,
,,,,,
"с. Ахтубинка",0,"ФАП 1930",,,
,,,,,
,,,,,
"с. Лапас",0,"ФАП 1936",,,
,,,,,
,,,,,
"Черноярский район",,,,,
"с.Вязовка",0,"ФАП 19 век"," 1 19 век",,
,,,,,
,,,,,
"с.Поды",0,"ФАП 2004 г."," 1 2004 г.",,
,,,,,
,,,,,
"с.Ступино",0,"ФАП 1960 г."," 1 1960 г.",,
,,,,,
,,,,,
"Ахтубинский район",,,,,
" п. Средний Баскунчак ",0,"ФАПНУЗРЖД",,,
"Пос. Верблюжий ",74,,,,
"Володарский район",,,,,
" п. Таловинка ",15,,,,
" с. КзылТан ",2,,,,
" с. Актюбе ",25,,,,
" п. Столбовой ",2,,,,
" с. ЕгинАул ",33,,,,
" с. Коровье ",0,"ФАП",,,
,,1979,,,
" с. Казенный Бугор ",,,,"ДХ",
" п. Менешау ",35,,,"ДХ",
" с. Барановка ",15,,,,
" п. Диановка ",4,,,,
" c. Мешково ",4,,,"ДХ",
" п. Самойловский ",8,,," ДХ",
" с. Кудрино ",5,,,,
" с. Ватажка ",5,,,,
" с. Сармантаевка ",5,,,,
" с. Блиново ",0,"ФАП",,,
,,1979,,,
,,,,,
" п. Старый Алтынжар ",6,,,"ДХ",
" с. Новокрасное ",0,"ФАП",,,
,,1920,,,
,,,,,
" с. Новомаячное ",3,,,"ДХ",
" с. Конный Могой ",35,,,"ДХ",
" с. Ахтерек ",0,"ФАП",,,
,,1949,,,
,,,,,
" п. Плотовинка ",2,,,,
" п. Береговой ",15,,,,
" с. Форпост Староватаженский",5,,,,
"  п. Красный",0,"ФАП",,,
,,1991,,,
,,,,,
" с. Раздор ",85,,,"ДХ ",
" п. Зеленый Остров ",5,,,,
" с. Алексеевка ",0,"ФАП",,,
,,"неизв.",,,
,,,,,
"Енотаевский район",,,,,
"с. Николаевка ",5,,,,
"с. Михайловка ",0,"ФАП 1915 ",," ",
,,,,,
,,,,,
"п. Береговой ",9," "," ","ДХ ",
"п. ИкиЧибирский",6," "," ","ДХ ",
"п. Прибрежный ",5," "," ","ДХ",
"Икрянинский район",,,,,
" с. Джамба ",1,,,"ДХ",
" с. Краса ",3,,,"ДХ ",
" с. Боркино ",0,"ФАП 1961г.п.",,,
,,,,,
,,,,,
" с. Сергино ",0,"ФАП 1970г.п.",,,
,,,,,
,,,,,
" п. Карабулак ",0,"ФАП 1983г.п.",,,
,,,,,
,,,,,
" с. Вахромеево ",0,"ФАП 1991г.п.",,,
,,,,,
,,,,,
" с. Светлое ",0,"ФАП 1993г.п.",,,
,,,,,
,,,,,
"Камызякский район",,,,,
" п.Нижнекалиново",5,,,,
" п. Новинский ",5,,,,
" п. Станья ",0,"ФАП 1960г.",,,
" п. Николаевский ",1,,,,
" п. Каспий ",0,"ФАП 1980г.",,,
" п. Октябрьский ",12,,,,
" с. Трехизбинка ",0,"ФАП 1987г.",,,
" п. Сизова Грива ",0,,,,
" п.Нижненикольский ",0,"ФАП 1992г.",,,
" п. Азовский ",8,,,,
" п. Качкаринский ",0,"ФАП 1964г.",,,
" с. Алексеевка ",14,,,,
" с. Бараний Бугор ",0,"ФАП 1965г.",,,
" п. Успех ",5,,,,
"Красноярский район",,,,,
" п. Бахаревский ",35,,,,
" п. Аллайский ",9,,,,
" п. Староурусовка ",3,,,,
" с. Кондаковка ",5,,,,
" с. Кошелевка ",0,"ФАП",,,
,,"1975г",,,
,,,,,
" п. Шмагино ",5,,,,
" п. Воробьевский ",3,,,,
" п. Солнечный ",5,,,,
" п. Степной ",85,,,"ДХ ",
"Лиманский район",,,,,
" ст. Басинск ",5," ",,,
" с. Воскресеновка ",0,"ФАП 1987",,,
,,,,,
,,,,,
" с. ЯрБазар ",0,"ФАП",,,
,,,,,
,,,,,
" с. Судачье ",0,"2007 ФАП",,,
,,,,,
,,,,,
" с. Рынок ",0,"1991 ФАП",,,
,,,,,
,,,,,
" с. Вышка ",0,"1997 ФАП",,,
,,,,,
,,,,,
" п. ж.д. разъезда №6 ",14," "," ","ДХ",
"Наримановский район",,,,,
"н.п. Разъезд 2",8,,,,
"п. Караагаш",0,"ФАП 1958",,,
"п. Сенной",7,,,"ДХ",
"с. ЯнгоАскер",0,"ФАП 1964"," ",,
,,,,,
,,,,,
"п. Барханы",16,,,"ДХ",
"п. Дрофиный",5,,,"ДХ",
"с. Нижнелебяжье",6,,,,
"п. Полынный",95,,,"ДХ",
"Приволжский район",,,,,
" п. Кульпа ",2,,,,
" с. Веселая Грива ",10,,,,
" п. Болдинский ",6,,,,
" п. Придорожный ",6,,,,
" п. Первое Мая ",2,,,,
" п. Мансур ",5,,,,
" п. Новый Кутум ",2,,,,
"Харабалинский район",,,,,
"п. Бугор",0,"ФАП 1951",,,
,,,,,
,,,,,
"п. Гремучий",15,,,"ДХ",
"Черноярский район",,,,,
"с.Кальновка",2,"  ","  ","   ",
"Ахтубинский район",,,,,
" с. Покровка ",0,"ФАП аренда в здании сельсовета",,,
,,,,,
,,,,,
" с. НовоНиколаевка ",0,"ФАП 1932",,,
,,,,,
,,,,,
" с. Золотуха ",0,"УБ 1917",,,
,,,,,
,,,,,
"Володарский район",,,,,
" с. Алтынжар ",,"ФАП",,,
,,1989,,,
,,,,,
" с. Большой Могой ",,,,,"ВА"
,,,,,1988
,,,,,
" с. Козлово ",,,,,"ВА"
,,,,,1993
,,,,,
" с. Маково ",,"ФАП",,,
,,1908,,,
,,,,,
" с. Мултаново ",,,,,"ВА"
,,,,,1960
,,,,,
" с. Новинка ",,,,,"ВА"
,,,,,1979
,,,,,
" с. Сизый Бугор ",,,,,"ВА"
,,,,,1988
,,,,,
" с. Тишково ",,"УБ КВОП",,,
,,1986,,,
,,,,,
" с. Цветное ",,"УБ КВОП",,,
,,1986,,,
,,,,,
"Енотаевский район",,,,,
"с. Пришиб",,,,"ОВОП 1917",
,,,,,
,,,,,
"с. Копановка ",,,,,"ВА 1917"
,,,,,
,,,,,
"с. Восток",,,,"ОВОП 1976",
,,,,,
,,,,,
"п. Волжский ",,"УБ 1987",,,
,,,,,
,,,,,
"с. Замьяны",,,,"ОВОП 1980 ",
,,,,,
,,,,,
"Икрянинский район",,,,,
" с. Житное ",,"УБ КВОП 1976г.п.",,,
,,,,,
,,,,,
" р.п. Ильинка ",,"Один ФАП 1998г.п.",,,
,,,,,
,,,,,
"Камызякский район",,,,,
" п. Верхнекалиновский ",,"ФАП 1990г",,,
" с. Иванчуг ",," ФАП 1916г.",,,
" с. Каралат ",,,,,"ВА 1985г"
,,,,,
,,,,,
" с. Никольское ",,"ФАП 1910г.",,,
" с. Полдневое ",,"ФАП 1970г.",,,
,,,,,
" с. Раздор ",,"ФАП 2012г.",,,
" с. Самосделка ",,,,,"ВА 1974г."
,,,,,
,,,,,
" с. Семибугры ",,,,,"ВА 1991г."
,,,,,
,,,,,
" с. Чаган ",,"ФАП 1995г.",,,
"Красноярский район",,,,,
" п. Комсомольский ",,,,,"ВА "
,,,,,"2018г"
,,,,,
" п. Бузан ",,,,"КВОП",
,,,,"1984г",
,,,,,
" с. Новоурусовка ",,,,"КВОП",
,,,,"1979г",
,,,,,
" с. Ватажное ",,"ФАП",,,
,,"1969г",,,
,,,,,
" п. Верхний Бузан ",,,,"КВОП",
,,,,"1988г",
,,,,,
" с. Забузан ",,,,"КВОП",
,,,,"1971г",
,,,,,
" с. Черемуха ",,"ФАП",,,
,,"2014г",,,
,,,,,
" п. Алча ",,"ФАП",,,
,,"1987г",,,
,,,,,
"Лиманский район",,,,,
" с. Басы ",,"1987 ФАП",,,
,,,,,
,,,,,
" с. Караванное ",,,,,"1973 ВА"
,,,,,
,,,,,
" с. Михайловка ",,1978,,,
,,"ФАП",,,
,,,,,
" с. Заречное ",,,,,"1961 ВА"
,,,,,
,,,,,
" с. Оля ",2,,,,"ВА"
,,,,," с. Лесное "
" с. Промысловка ",,,,,"1987 ВА"
,,,,,
,,,,,
"Наримановский район",,,,,
"с. Николаевка",,,,,"ВА"
,,,,,
,,,,,
"п. Прикаспийский",,,,,"ВА"
,,,,,
,,,,,
"с. Разночиновка",,,,,"ВА"
,,,,,
,,,,,
"с. Рассвет",,"ФАП 2014",,,
,,,,,
,,,,,
"с. Биштюбинка",,"ФАП",,,
,,1990,,,
,,,,,
"п. Трусово",,"ФАП",,,
,,2012,,,
,,,,,
"Приволжский район",,,,,
" с. Евпраксино ",33,,,,"ВА"
,,,,,2014
,,,,,
" п. Новоначаловский ",3,,,,
" п. Пойменный ",25,,,,"ВА"
,,,,,2018
,,,,,
" с. Кулаковка ",,"ФАП",,,
,,1960,,,
,,,,,
" с. Фунтово1 ",8,,,"ОВОП",
,,,,2008,
,,,,,
"Харабалинский район",,,,,
"с. Вольное",,"1988 ",,,"ВА"
,,,,,
,,,,,
"с. Заволжское",," 1967",,,"ВА"
,,,,,
,,,,,
"с. Кочковатка",,"ФАП",,,
,,1987,,,
,,,,,
"с. Михайловка",,"ФАП",,,
,,1960,,,
,,,,,
"с. Селитренное",," ",,,"ВА"
,,,,,
,,,,,
"п. Ашулук",1," ",,,
"Черноярский район",,,,,
"с.Зубовка",,"ФАП ",," "," "
,,,,,
,,,,,
"с.Каменный Яр",," ",," ","ВА 1978 г."
,,,,,
,,,,,
"с.Солодники",," "," "," ","ВА  1991 г."
,,,,,
,,,,,
"с.Старица",,," "," "," ВА 1978 г."
,,,,,
,,,,,
"с.Ушаковка",," "," "," ","ВА 1978 г."
